[
  {
    "id": 1001,
    "name": "ClimbTest1"
  },
  {
    "id": 1002,
    "name": "ClimbTest2"
  },
  {
    "id": 1003,
    "name": "TheBigWorld"
  },
  {
    "id": 1006,
    "name": "Level_PFDungeon01"
  },
  {
    "id": 1011,
    "name": "Level_Gameplay_Test"
  },
  {
    "id": 1015,
    "name": "WindZone (Level_Sneak)"
  },
  {
    "id": 1016,
    "name": "Level_AmborAbyss01"
  },
  {
    "id": 1017,
    "name": "Level_FCdungeon_Kettle01"
  },
  {
    "id": 1019,
    "name": "Level_Wisdom03 (Level_Dungeon)"
  },
  {
    "id": 1024,
    "name": "Level_WeekDungeon01"
  },
  {
    "id": 1030,
    "name": "TestIntercept_LiYue (Level_Sneak)"
  },
  {
    "id": 1031,
    "name": "Level_Tower_Morning_01"
  },
  {
    "id": 1032,
    "name": "Level_FCdungeon_Cloud02 (LevelEntity_Quest_XiaoDungeon)"
  },
  {
    "id": 1050,
    "name": "Level_WaterMonster_Test"
  },
  {
    "id": 1051,
    "name": "Level_QunYuGe_CLX"
  },
  {
    "id": 1052,
    "name": "Level_FCdungeon_FatOtaku"
  },
  {
    "id": 1053,
    "name": "Level_FCdungeon_Kettle01"
  },
  {
    "id": 1054,
    "name": "Level_FCdungeon_Kettle01"
  },
  {
    "id": 1055,
    "name": "Level_YoungMaster"
  },
  {
    "id": 1056,
    "name": "Level_ZhongLi_WG"
  },
  {
    "id": 1058,
    "name": "Level_FCdungeon_FatOtaku"
  },
  {
    "id": 1059,
    "name": "Level_FCdungeon_Hutao"
  },
  {
    "id": 1062,
    "name": "Level_FCdungeon_LeiDianYing"
  },
  {
    "id": 1064,
    "name": "IndoorScene_Dq_TenryuBugyo"
  },
  {
    "id": 1065,
    "name": "Level_TenryuBugyo01"
  },
  {
    "id": 1066,
    "name": "IndoorScene_Dq_Uyutei"
  },
  {
    "id": 1068,
    "name": "IndoorScene_Md_AngelShare_Bartender01 (Level_Bartender_Room)"
  },
  {
    "id": 1070,
    "name": "Level_Tower_Moon_01"
  },
  {
    "id": 1071,
    "name": "Level_FCdungeon_Shougun01_Kazuha"
  },
  {
    "id": 1076,
    "name": "IndoorScene_Md_CattailTavern"
  },
  {
    "id": 1004,
    "name": "Knight_Inside_Test"
  },
  {
    "id": 1005,
    "name": "ChurchSteal (Level_Sneak)"
  },
  {
    "id": 1008,
    "name": "ChurchLobby"
  },
  {
    "id": 1009,
    "name": "AngelShare"
  },
  {
    "id": 1013,
    "name": "SneakAdvancedTest (Level_Sneak)"
  },
  {
    "id": 1018,
    "name": "Chateau"
  },
  {
    "id": 1023,
    "name": "Level_Yurenzhong"
  },
  {
    "id": 1033,
    "name": "Indoor_Ly_Bank"
  },
  {
    "id": 1034,
    "name": "Indoor_Ly_Liuliting"
  },
  {
    "id": 1035,
    "name": "Indoor_Ly_Xinyuexuan"
  },
  {
    "id": 1057,
    "name": "Indoor_Ly_Qunyuge"
  },
  {
    "id": 1060,
    "name": "IndoorScene_Dq_Teahouse"
  },
  {
    "id": 1061,
    "name": "IndoorScene_Dq_Syabugyo"
  },
  {
    "id": 1063,
    "name": "IndoorScene_Dq_Donjon"
  },
  {
    "id": 1069,
    "name": "IndoorScene_Ly_CyRoom"
  },
  {
    "id": 1072,
    "name": "IndoorScene_Xm_Barbecue"
  },
  {
    "id": 1073,
    "name": "IndoorScene_Xm_Biglibrary"
  },
  {
    "id": 1074,
    "name": "IndoorScene_Xm_Coffeehouse"
  },
  {
    "id": 1075,
    "name": "IndoorScene_Xm_Csd"
  },
  {
    "id": 1077,
    "name": "IndoorScene_Xm_Chunzhangjia"
  },
  {
    "id": 1078,
    "name": "IndoorScene_Xm_Zls"
  },
  {
    "id": 1079,
    "name": "IndoorScene_Xm_Alhouse"
  },
  {
    "id": 1082,
    "name": "IndoorScene_Ly_Baizhu"
  },
  {
    "id": 1080,
    "name": "IndoorScene_Fd_ShuiXian"
  },
  {
    "id": 1083,
    "name": "IndoorScene_Fd_Yht"
  },
  {
    "id": 1084,
    "name": "IndoorScene_Fd_Hotel"
  },
  {
    "id": 1085,
    "name": "IndoorScene_Fd_Gjy"
  },
  {
    "id": 2001,
    "name": "Homeworld_Exterior_Above"
  },
  {
    "id": 2002,
    "name": "Homeworld_Exterior_Karst"
  },
  {
    "id": 2003,
    "name": "Homeworld_Exterior_Uncharted"
  },
  {
    "id": 2004,
    "name": "Homeworld_Exterior_Ukiyo"
  },
  {
    "id": 2005,
    "name": "Homeworld_Exterior_Sumeru"
  },
  {
    "id": 2201,
    "name": "Homeworld_Interior_Md_Apartment_01"
  },
  {
    "id": 2202,
    "name": "Homeworld_Interior_Ly_Apartment_01"
  },
  {
    "id": 2203,
    "name": "Homeworld_Interior_Dq_Apartment_01"
  },
  {
    "id": 2204,
    "name": "Homeworld_Interior_Xm_Apt_01"
  },
  {
    "id": 1,
    "name": "BigWorld_LevelStreaming (Level_BigWorld)"
  },
  {
    "id": 2,
    "name": "BigWorld_LevelStreaming (Level_BigWorld)"
  },
  {
    "id": 3,
    "name": "BigWorld_LevelStreaming (Level_BigWorld)"
  },
  {
    "id": 4,
    "name": "LostParadise_LevelStreaming (Level_BigWorld)"
  },
  {
    "id": 5,
    "name": "AbyssalPalace_LevelStreaming (Level_BigWorld)"
  },
  {
    "id": 6,
    "name": "TheChasm_LevelStreaming (Level_BigWorld)"
  },
  {
    "id": 7,
    "name": "MichiaeMatsuri_LevelStreaming (Level_BigWorld)"
  },
  {
    "id": 9,
    "name": "DreamIsland_LevelStreaming (Level_BigWorld)"
  },
  {
    "id": 10,
    "name": "Penumbra_LevelStreaming (Level_BigWorld_Scene10)"
  },
  {
    "id": 20000,
    "name": "Level_Gameplay_Test"
  },
  {
    "id": 20005,
    "name": "PlotLevel_XiangLingLevel_Xyd"
  },
  {
    "id": 20006,
    "name": "Level_UCDungeon01"
  },
  {
    "id": 20007,
    "name": "PlotLevel_BarbaraMission02_Xyd"
  },
  {
    "id": 20008,
    "name": "Level_KaeyaTutorialMission01"
  },
  {
    "id": 20009,
    "name": "Level_AmborTutorialMission01"
  },
  {
    "id": 20010,
    "name": "Level_LisaTutorialMission04"
  },
  {
    "id": 20011,
    "name": "Level_LisaTutorialMission03"
  },
  {
    "id": 20012,
    "name": "Level_UCDungeon01"
  },
  {
    "id": 20013,
    "name": "Level_KaeyaTutorialMission02"
  },
  {
    "id": 20014,
    "name": "Level_UCDungeon01"
  },
  {
    "id": 20015,
    "name": "Level_LisaTutorialMission03"
  },
  {
    "id": 20016,
    "name": "Level_KaeyaTutorialMission02"
  },
  {
    "id": 20017,
    "name": "DvalinTest_S01 (Level_Dvalin_S01)"
  },
  {
    "id": 20018,
    "name": "DvalinTest_S04 (Level_Dvalin_S04)"
  },
  {
    "id": 20019,
    "name": "Level_LisaTutorialMission04"
  },
  {
    "id": 20020,
    "name": "DvalinTest_S00 (Level_Dvalin_S00)"
  },
  {
    "id": 20022,
    "name": "Level_UCDungeon01"
  },
  {
    "id": 20023,
    "name": "Level_Plot"
  },
  {
    "id": 20024,
    "name": "Level_UCDungeon01"
  },
  {
    "id": 20025,
    "name": "DvalinTest_S04 (Level_Dvalin_S04_Recycle)"
  },
  {
    "id": 20026,
    "name": "Level_WeekDungeon01"
  },
  {
    "id": 20027,
    "name": "Level_WeekDungeon01"
  },
  {
    "id": 20028,
    "name": "Level_WeekDungeon01"
  },
  {
    "id": 20031,
    "name": "Level_UCDungeon01"
  },
  {
    "id": 20032,
    "name": "Level_WindyTutorial_YQT"
  },
  {
    "id": 20034,
    "name": "IndoorScene_Ly_Goldenhouse (Level_Tartaglia)"
  },
  {
    "id": 20035,
    "name": "Level_KaeyaTutorialMission02"
  },
  {
    "id": 20036,
    "name": "Level_KaeyaTutorialMission02"
  },
  {
    "id": 20037,
    "name": "Level_FCdungeon_Eula"
  },
  {
    "id": 20101,
    "name": "IndoorScene_Ly_Goldenhouse (Level_Tartaglia)"
  },
  {
    "id": 20102,
    "name": "Level_FCdungeon_Qiqi"
  },
  {
    "id": 20103,
    "name": "Level_AmborTutorialMission01"
  },
  {
    "id": 20104,
    "name": "Level_FCdungeon_GoddessLY"
  },
  {
    "id": 20105,
    "name": "Level_FCdungeon_GoddessLY"
  },
  {
    "id": 20106,
    "name": "Level_DahakaBoss01 (Level_Dahaka_CameraSetting)"
  },
  {
    "id": 20107,
    "name": "Level_DahakaBoss01 (Level_Dahaka_CameraSetting)"
  },
  {
    "id": 20108,
    "name": "Level_DahakaBoss01 (Level_Dahaka_CameraSetting)"
  },
  {
    "id": 20109,
    "name": "Level_DahakaBoss01 (Level_Dahaka_CameraSetting)"
  },
  {
    "id": 20110,
    "name": "Level_DahakaBoss01 (Level_Dahaka_CameraSetting)"
  },
  {
    "id": 20111,
    "name": "Level_HFDungeon_Prison01"
  },
  {
    "id": 20112,
    "name": "Level_Dq_Void01 (Level_Monster_Shougun_Setting)"
  },
  {
    "id": 20113,
    "name": "Level_FCdungeon_Delusion01"
  },
  {
    "id": 20114,
    "name": "Level_DonjonBattle01"
  },
  {
    "id": 20115,
    "name": "Level_DonjonBattle01"
  },
  {
    "id": 20116,
    "name": "Level_Dq_Void01"
  },
  {
    "id": 20117,
    "name": "Level_Dq_Void02 (Level_Monster_Shougun_Tachi_Revive)"
  },
  {
    "id": 20118,
    "name": "Level_HFDungeon02"
  },
  {
    "id": 20119,
    "name": "Level_HFDungeon_Yidou01"
  },
  {
    "id": 20120,
    "name": "Level_Eldritch_Minor01"
  },
  {
    "id": 20121,
    "name": "QuestLevel_FCdungeon_ShenheCloud01"
  },
  {
    "id": 20122,
    "name": "Level_WeekDungeon_Baal (Level_Monster_Shougun_Mitakenarukami_AvatarRevive)"
  },
  {
    "id": 20123,
    "name": "Level_FCdungeon_Miko"
  },
  {
    "id": 20124,
    "name": "Level_Eldritch_Minor01"
  },
  {
    "id": 20125,
    "name": "Level_WeekDungeon_Baal"
  },
  {
    "id": 20126,
    "name": "Level_QuestRongcai_Dungeon01"
  },
  {
    "id": 20127,
    "name": "Level_CYDungeon_Activy01"
  },
  {
    "id": 20128,
    "name": "Level_CYDungeon_Activy02 (LevelEntity_Activity_V2_7_CYRogue_20128)"
  },
  {
    "id": 20129,
    "name": "Level_CYDungeon_Activy03"
  },
  {
    "id": 20130,
    "name": "IndoorScene_Ly_CyRoom"
  },
  {
    "id": 20131,
    "name": "Level_FCdungeon_Yelan"
  },
  {
    "id": 20132,
    "name": "Level_SmrDungeon_BigTree (Level_Dungeon)"
  },
  {
    "id": 20133,
    "name": "Level_DreamIsland_Xinyan01"
  },
  {
    "id": 20134,
    "name": "Level_DreamIsland_Mona01 (Level_DreamDungeon_Mona)"
  },
  {
    "id": 20135,
    "name": "Level_DreamIsland_Kazuha02"
  },
  {
    "id": 20136,
    "name": "Level_DreamIsland_Mona02 (Level_DreamDungeon_Mona)"
  },
  {
    "id": 20137,
    "name": "Level_DreamIsland_Fischl01"
  },
  {
    "id": 20138,
    "name": "Level_DreamIsland_Fischl02"
  },
  {
    "id": 20139,
    "name": "Level_DreamIsland_Fischl03"
  },
  {
    "id": 20140,
    "name": "Level_DreamIsland_Kazuha03"
  },
  {
    "id": 20141,
    "name": "Level_DreamIsland_Fischllibrary"
  },
  {
    "id": 20142,
    "name": "Level_DreamIsland_Kazuha01"
  },
  {
    "id": 20143,
    "name": "Level_DreamIsland_Fischlroom"
  },
  {
    "id": 20144,
    "name": "Level_DreamIsland_Fischlcorridor"
  },
  {
    "id": 20145,
    "name": "Level_XMDungeon_WQ01 (Level_Dungeon)"
  },
  {
    "id": 20146,
    "name": "Level_XMDungeon_WQ04 (Level_Dungeon)"
  },
  {
    "id": 20147,
    "name": "Level_XMDungeon_WQ03 (Level_Dungeon)"
  },
  {
    "id": 20148,
    "name": "Level_XMDungeon_WQ02"
  },
  {
    "id": 20149,
    "name": "Level_SmrDungeon_Tinali (Level_Dungeon)"
  },
  {
    "id": 20150,
    "name": "Level_VoidWorldTree"
  },
  {
    "id": 20151,
    "name": "Level_FC_DeshretTemple"
  },
  {
    "id": 20152,
    "name": "Level_ScaramoucheBoss (Level_Monster_Nada_Setting)"
  },
  {
    "id": 20153,
    "name": "Level_ScaramoucheBoss (Level_Monster_Nada_Setting)"
  },
  {
    "id": 20154,
    "name": "Level_ScaramoucheBoss (Level_Monster_Nada_Setting)"
  },
  {
    "id": 20155,
    "name": "Level_ScaramoucheBoss (Level_Monster_Nada_Setting)"
  },
  {
    "id": 20156,
    "name": "Level_ScaramoucheBoss (Level_Monster_Nada_Setting)"
  },
  {
    "id": 20157,
    "name": "Level_SmrDungeon_Cyno"
  },
  {
    "id": 20158,
    "name": "Level_FCdungeon_BigTree (Level_Dungeon)"
  },
  {
    "id": 20159,
    "name": "Level_XMDungeon_WQ01 (Level_Dungeon)"
  },
  {
    "id": 20160,
    "name": "Level_FC_DeshretTemple (Level_Dungeon)"
  },
  {
    "id": 20161,
    "name": "Level_FC_DeshretTemple (Level_Dungeon)"
  },
  {
    "id": 20162,
    "name": "IndoorScene_Xm_Biglibrary"
  },
  {
    "id": 20163,
    "name": "Level_ScaramoucheFactory (Level_Dungeon)"
  },
  {
    "id": 20164,
    "name": "Level_VoidWorldTree"
  },
  {
    "id": 20165,
    "name": "Level_NahidaDungeon_01 (Level_Dungeon)"
  },
  {
    "id": 20166,
    "name": "Level_VoidWorldTree_02 (LevelEntity_Activity_ClearFollowPet)"
  },
  {
    "id": 20167,
    "name": "Level_Consciousness (LevelEntity_Activity_ClearFollowPet)"
  },
  {
    "id": 20168,
    "name": "Level_ScaramoucheBoss (Level_Monster_Nada_Setting)"
  },
  {
    "id": 20169,
    "name": "Level_ScaramoucheRecall"
  },
  {
    "id": 20170,
    "name": "Level_ScaramoucheFactory"
  },
  {
    "id": 20171,
    "name": "Level_ScaramoucheBoss (LevelEntity_ScaramoucheBoss)"
  },
  {
    "id": 20172,
    "name": "Level_Consciousness"
  },
  {
    "id": 20173,
    "name": "Level_Xm_Alhaitham_01 (Level_AlHaitham_Dungeon_Setting)"
  },
  {
    "id": 20174,
    "name": "Level_Wisdom01 (Level_SpaceIntelligence_Dungeon)"
  },
  {
    "id": 20175,
    "name": "Level_Wisdom02 (Level_SpaceIntelligence_Dungeon)"
  },
  {
    "id": 20176,
    "name": "Level_Wisdom03 (Level_SpaceIntelligence_Dungeon)"
  },
  {
    "id": 20177,
    "name": "Level_SmrDungeon_Dehya (Level_Dungeon)"
  },
  {
    "id": 20178,
    "name": "Level_HangMystification"
  },
  {
    "id": 20179,
    "name": "Level_WeekDungeon_Apep"
  },
  {
    "id": 20180,
    "name": "BigWorld_LevelStreaming (Level_BigWorld)"
  },
  {
    "id": 20181,
    "name": "Level_HangMystification"
  },
  {
    "id": 20182,
    "name": "Level_Ly_Baizhu_01"
  },
  {
    "id": 20183,
    "name": "Level_Penumbra_CircusTent (Level_V3_8_Scene20183)"
  },
  {
    "id": 20185,
    "name": "Level_WeekDungeon_Apep"
  },
  {
    "id": 20186,
    "name": "Level_Fontaine_Gear"
  },
  {
    "id": 20187,
    "name": "Level_Dungeon_Fd_LinNi"
  },
  {
    "id": 30001,
    "name": "LevelTest_CurseMaze"
  },
  {
    "id": 30100,
    "name": "Level_Tower_Morning_01"
  },
  {
    "id": 30101,
    "name": "Level_Tower_Morning_01"
  },
  {
    "id": 30102,
    "name": "Level_Tower_Morning_01"
  },
  {
    "id": 30103,
    "name": "Level_Tower_Morning_01"
  },
  {
    "id": 30104,
    "name": "Level_Tower_Morning_01"
  },
  {
    "id": 30200,
    "name": "Level_Tower_01_Water"
  },
  {
    "id": 30201,
    "name": "Level_Tower_Morning_01"
  },
  {
    "id": 30202,
    "name": "Level_Tower_01_Water"
  },
  {
    "id": 30203,
    "name": "Level_Tower_Morning_01"
  },
  {
    "id": 30204,
    "name": "Level_Tower_Morning_01"
  },
  {
    "id": 30300,
    "name": "Level_Tower_Morning_01"
  },
  {
    "id": 30301,
    "name": "Level_Tower_Morning_01"
  },
  {
    "id": 30302,
    "name": "Level_Tower_01_Water"
  },
  {
    "id": 30303,
    "name": "Level_Tower_01_Water"
  },
  {
    "id": 30304,
    "name": "Level_Tower_Morning_01"
  },
  {
    "id": 30400,
    "name": "Level_Tower_Dusk_01"
  },
  {
    "id": 30401,
    "name": "Level_Tower_Dusk_01"
  },
  {
    "id": 30402,
    "name": "Level_Tower_Dusk_01"
  },
  {
    "id": 30403,
    "name": "Level_Tower_Dusk_01"
  },
  {
    "id": 30404,
    "name": "Level_Tower_Dusk_01"
  },
  {
    "id": 30500,
    "name": "Level_Tower_Dusk_01"
  },
  {
    "id": 30501,
    "name": "Level_Tower_Dusk_01"
  },
  {
    "id": 30502,
    "name": "Level_Tower_Dusk_01"
  },
  {
    "id": 30503,
    "name": "Level_Tower_Dusk_01"
  },
  {
    "id": 30504,
    "name": "Level_Tower_Dusk_01"
  },
  {
    "id": 30600,
    "name": "Level_Tower_01_Open"
  },
  {
    "id": 30601,
    "name": "Level_Tower_01_Open"
  },
  {
    "id": 30602,
    "name": "Level_Tower_01_Open"
  },
  {
    "id": 30603,
    "name": "Level_Tower_01_Open"
  },
  {
    "id": 30604,
    "name": "Level_Tower_Night_01"
  },
  {
    "id": 30700,
    "name": "Level_Tower_Dusk_01"
  },
  {
    "id": 30701,
    "name": "Level_Tower_01_Water"
  },
  {
    "id": 30702,
    "name": "Level_Tower_Dusk_01"
  },
  {
    "id": 30703,
    "name": "Level_Tower_Dusk_01"
  },
  {
    "id": 30704,
    "name": "Level_Tower_Dusk_01"
  },
  {
    "id": 30800,
    "name": "Level_Tower_Universe_01"
  },
  {
    "id": 30801,
    "name": "Level_Tower_Universe_01"
  },
  {
    "id": 30802,
    "name": "Level_Tower_Universe_01"
  },
  {
    "id": 30803,
    "name": "Level_Tower_01_Water"
  },
  {
    "id": 30804,
    "name": "Level_Tower_Universe_01"
  },
  {
    "id": 30900,
    "name": "Level_Tower_Moon_01"
  },
  {
    "id": 30901,
    "name": "Level_Tower_Moon_01"
  },
  {
    "id": 30902,
    "name": "Level_Tower_Moon_01"
  },
  {
    "id": 30903,
    "name": "Level_Tower_Moon_01"
  },
  {
    "id": 30904,
    "name": "Level_Tower_Moon_01"
  },
  {
    "id": 31000,
    "name": "Level_Tower_Night_01"
  },
  {
    "id": 31001,
    "name": "Level_Tower_Night_01"
  },
  {
    "id": 31002,
    "name": "Level_Tower_Night_01"
  },
  {
    "id": 31003,
    "name": "Level_Tower_Night_01"
  },
  {
    "id": 31004,
    "name": "Level_Tower_Night_01"
  },
  {
    "id": 31100,
    "name": "Level_Tower_Night_01"
  },
  {
    "id": 31101,
    "name": "Level_Tower_Night_01"
  },
  {
    "id": 31102,
    "name": "Level_Tower_Night_01"
  },
  {
    "id": 31103,
    "name": "Level_Tower_Night_01"
  },
  {
    "id": 31104,
    "name": "Level_Tower_Night_01"
  },
  {
    "id": 31200,
    "name": "Level_Tower_Night_01"
  },
  {
    "id": 31201,
    "name": "Level_Tower_Night_01"
  },
  {
    "id": 31202,
    "name": "Level_Tower_Night_01"
  },
  {
    "id": 31203,
    "name": "Level_Tower_Night_01"
  },
  {
    "id": 31204,
    "name": "Level_Tower_Night_01"
  },
  {
    "id": 31300,
    "name": "Level_Tower_Element_Fire_01"
  },
  {
    "id": 31301,
    "name": "Level_Tower_Element_Fire_01"
  },
  {
    "id": 31302,
    "name": "Level_Tower_Element_Fire_01"
  },
  {
    "id": 31303,
    "name": "Level_Tower_Element_Fire_01"
  },
  {
    "id": 31304,
    "name": "Level_Tower_Element_Fire_01"
  },
  {
    "id": 31400,
    "name": "Level_Tower_Element_Thunder_01"
  },
  {
    "id": 31401,
    "name": "Level_Tower_Element_Thunder_01"
  },
  {
    "id": 31402,
    "name": "Level_Tower_Element_Thunder_01"
  },
  {
    "id": 31403,
    "name": "Level_Tower_Element_Thunder_01"
  },
  {
    "id": 31404,
    "name": "Level_Tower_Element_Thunder_01"
  },
  {
    "id": 31500,
    "name": "Level_Tower_Element_Ice_01"
  },
  {
    "id": 31501,
    "name": "Level_Tower_Element_Ice_01"
  },
  {
    "id": 31502,
    "name": "Level_Tower_Element_Ice_01"
  },
  {
    "id": 31503,
    "name": "Level_Tower_Element_Ice_01"
  },
  {
    "id": 31504,
    "name": "Level_Tower_Element_Ice_01"
  },
  {
    "id": 31600,
    "name": "Level_Tower_Element_Water_01"
  },
  {
    "id": 31601,
    "name": "Level_Tower_Element_Water_01"
  },
  {
    "id": 31602,
    "name": "Level_Tower_Element_Water_01"
  },
  {
    "id": 31603,
    "name": "Level_Tower_Element_Water_01"
  },
  {
    "id": 31604,
    "name": "Level_Tower_Element_Water_01"
  },
  {
    "id": 31700,
    "name": "Level_Tower_Moon_01"
  },
  {
    "id": 31701,
    "name": "Level_Tower_Moon_01"
  },
  {
    "id": 31702,
    "name": "Level_Tower_Moon_01"
  },
  {
    "id": 31703,
    "name": "Level_Tower_Moon_01"
  },
  {
    "id": 31704,
    "name": "Level_Tower_Moon_01"
  },
  {
    "id": 31800,
    "name": "Level_Tower_Universe_01"
  },
  {
    "id": 31801,
    "name": "Level_Tower_Universe_01"
  },
  {
    "id": 31802,
    "name": "Level_Tower_Universe_01"
  },
  {
    "id": 31803,
    "name": "Level_Tower_Universe_01"
  },
  {
    "id": 31804,
    "name": "Level_Tower_Universe_01"
  },
  {
    "id": 31900,
    "name": "Level_Tower_Universe_01"
  },
  {
    "id": 31901,
    "name": "Level_Tower_Universe_01"
  },
  {
    "id": 31902,
    "name": "Level_Tower_Universe_01"
  },
  {
    "id": 31903,
    "name": "Level_Tower_Universe_01"
  },
  {
    "id": 31904,
    "name": "Level_Tower_Universe_01"
  },
  {
    "id": 32000,
    "name": "Level_Tower_Universe_01"
  },
  {
    "id": 32001,
    "name": "Level_Tower_Universe_01"
  },
  {
    "id": 32002,
    "name": "Level_Tower_Universe_01"
  },
  {
    "id": 32003,
    "name": "Level_Tower_Universe_01"
  },
  {
    "id": 32004,
    "name": "Level_Tower_Universe_01"
  },
  {
    "id": 32100,
    "name": "Level_Tower_Morning_01"
  },
  {
    "id": 32101,
    "name": "Level_Tower_Morning_01"
  },
  {
    "id": 32102,
    "name": "Level_Tower_Morning_01"
  },
  {
    "id": 32103,
    "name": "Level_Tower_Morning_01"
  },
  {
    "id": 32104,
    "name": "Level_Tower_Morning_01"
  },
  {
    "id": 32200,
    "name": "Level_Tower_Morning_01"
  },
  {
    "id": 32201,
    "name": "Level_Tower_Morning_01"
  },
  {
    "id": 32202,
    "name": "Level_Tower_Morning_01"
  },
  {
    "id": 32203,
    "name": "Level_Tower_Morning_01"
  },
  {
    "id": 32204,
    "name": "Level_Tower_Morning_01"
  },
  {
    "id": 33100,
    "name": "Level_Tower_Morning_01"
  },
  {
    "id": 33101,
    "name": "Level_Tower_Morning_01"
  },
  {
    "id": 33102,
    "name": "Level_Tower_01_Open"
  },
  {
    "id": 33103,
    "name": "Level_Tower_Morning_01"
  },
  {
    "id": 34100,
    "name": "Level_Tower_Morning_01"
  },
  {
    "id": 34101,
    "name": "Level_Tower_01_Water"
  },
  {
    "id": 34102,
    "name": "Level_Tower_01_Open"
  },
  {
    "id": 34103,
    "name": "Level_Tower_Morning_01"
  },
  {
    "id": 35100,
    "name": "Level_Tower_Morning_01"
  },
  {
    "id": 35101,
    "name": "Level_Tower_Morning_01"
  },
  {
    "id": 35102,
    "name": "Level_Tower_Morning_01"
  },
  {
    "id": 35103,
    "name": "Level_Tower_Morning_01"
  },
  {
    "id": 33401,
    "name": "Level_Tower_Dusk_01 (LevelEntity_ClearLocalGadgets)"
  },
  {
    "id": 33402,
    "name": "Level_Tower_Night_01 (LevelEntity_ClearLocalGadgets)"
  },
  {
    "id": 33403,
    "name": "Level_Tower_Night_01 (LevelEntity_ClearLocalGadgets)"
  },
  {
    "id": 33404,
    "name": "Level_Tower_Night_01 (LevelEntity_ClearLocalGadgets)"
  },
  {
    "id": 34401,
    "name": "Level_Tower_Dusk_01 (LevelEntity_ClearLocalGadgets)"
  },
  {
    "id": 34402,
    "name": "Level_Tower_Night_01 (LevelEntity_ClearLocalGadgets)"
  },
  {
    "id": 34403,
    "name": "Level_Tower_Night_01 (LevelEntity_ClearLocalGadgets)"
  },
  {
    "id": 34404,
    "name": "Level_Tower_Night_01 (LevelEntity_ClearLocalGadgets)"
  },
  {
    "id": 35401,
    "name": "Level_Tower_Dusk_01 (LevelEntity_ClearLocalGadgets)"
  },
  {
    "id": 35402,
    "name": "Level_Tower_Night_01 (LevelEntity_ClearLocalGadgets)"
  },
  {
    "id": 35403,
    "name": "Level_Tower_Dusk_01 (LevelEntity_ClearLocalGadgets)"
  },
  {
    "id": 35404,
    "name": "Level_Tower_Night_01 (LevelEntity_ClearLocalGadgets)"
  },
  {
    "id": 33700,
    "name": "Level_Tower_Moon_01"
  },
  {
    "id": 33701,
    "name": "Level_Tower_Moon_01"
  },
  {
    "id": 33702,
    "name": "Level_Tower_Universe_01"
  },
  {
    "id": 33703,
    "name": "Level_Tower_Universe_01"
  },
  {
    "id": 33704,
    "name": "Level_Tower_Element_Ice_01"
  },
  {
    "id": 33705,
    "name": "Level_Tower_Element_Fire_01"
  },
  {
    "id": 33706,
    "name": "Level_Tower_Element_Ice_01"
  },
  {
    "id": 33707,
    "name": "Level_Tower_Element_Ice_01"
  },
  {
    "id": 33708,
    "name": "Level_Tower_Universe_01"
  },
  {
    "id": 33709,
    "name": "Level_Tower_Element_Thunder_01"
  },
  {
    "id": 33710,
    "name": "Level_Tower_Universe_01"
  },
  {
    "id": 33711,
    "name": "Level_Tower_Element_Water_01"
  },
  {
    "id": 33712,
    "name": "Level_Tower_Universe_01"
  },
  {
    "id": 33713,
    "name": "Level_Tower_Element_Ice_01"
  },
  {
    "id": 33714,
    "name": "Level_Tower_Element_Ice_01"
  },
  {
    "id": 33715,
    "name": "Level_Tower_Moon_01"
  },
  {
    "id": 33716,
    "name": "Level_Tower_Universe_01"
  },
  {
    "id": 33717,
    "name": "Level_Tower_Moon_01"
  },
  {
    "id": 33718,
    "name": "Level_Tower_Moon_01"
  },
  {
    "id": 33719,
    "name": "Level_Tower_Moon_01"
  },
  {
    "id": 33720,
    "name": "Level_Tower_Universe_01"
  },
  {
    "id": 33721,
    "name": "Level_Tower_Moon_01"
  },
  {
    "id": 33722,
    "name": "Level_Tower_Universe_01"
  },
  {
    "id": 33723,
    "name": "Level_Tower_Moon_01"
  },
  {
    "id": 33724,
    "name": "Level_Tower_Universe_01"
  },
  {
    "id": 33725,
    "name": "Level_Tower_Moon_01"
  },
  {
    "id": 33726,
    "name": "Level_Tower_Universe_01"
  },
  {
    "id": 33727,
    "name": "Level_Tower_Moon_01"
  },
  {
    "id": 33728,
    "name": "Level_Tower_Universe_01"
  },
  {
    "id": 33729,
    "name": "Level_Tower_Moon_01"
  },
  {
    "id": 33730,
    "name": "Level_Tower_Universe_01"
  },
  {
    "id": 33731,
    "name": "Level_Tower_Moon_01"
  },
  {
    "id": 33732,
    "name": "Level_Tower_Universe_01"
  },
  {
    "id": 33733,
    "name": "Level_Tower_Moon_01"
  },
  {
    "id": 33734,
    "name": "Level_Tower_Universe_01"
  },
  {
    "id": 33735,
    "name": "Level_Tower_Moon_01"
  },
  {
    "id": 33736,
    "name": "Level_Tower_Universe_01"
  },
  {
    "id": 33737,
    "name": "Level_Tower_Moon_01 (LevelEntity_ClearLocalGadgets)"
  },
  {
    "id": 33738,
    "name": "Level_Tower_Moon_01 (LevelEntity_ClearLocalGadgets)"
  },
  {
    "id": 33739,
    "name": "Level_Tower_Moon_01 (LevelEntity_ClearLocalGadgets)"
  },
  {
    "id": 33740,
    "name": "Level_Tower_Universe_01 (LevelEntity_ClearLocalGadgets)"
  },
  {
    "id": 33741,
    "name": "Level_Tower_Moon_01 (LevelEntity_ClearLocalGadgets)"
  },
  {
    "id": 33742,
    "name": "Level_Tower_Universe_01 (LevelEntity_ClearLocalGadgets)"
  },
  {
    "id": 33743,
    "name": "Level_Tower_Moon_01 (LevelEntity_ClearLocalGadgets)"
  },
  {
    "id": 33744,
    "name": "Level_Tower_Universe_01 (LevelEntity_ClearLocalGadgets)"
  },
  {
    "id": 33745,
    "name": "Level_Tower_Moon_01 (LevelEntity_ClearLocalGadgets)"
  },
  {
    "id": 33746,
    "name": "Level_Tower_Universe_01 (LevelEntity_ClearLocalGadgets)"
  },
  {
    "id": 33747,
    "name": "Level_Tower_Moon_01 (LevelEntity_ClearLocalGadgets)"
  },
  {
    "id": 33748,
    "name": "Level_Tower_Universe_01 (LevelEntity_ClearLocalGadgets)"
  },
  {
    "id": 33749,
    "name": "Level_Tower_Moon_01 (LevelEntity_ClearLocalGadgets)"
  },
  {
    "id": 33750,
    "name": "Level_Tower_Universe_01 (LevelEntity_ClearLocalGadgets)"
  },
  {
    "id": 33751,
    "name": "Level_Tower_Moon_01 (LevelEntity_ClearLocalGadgets)"
  },
  {
    "id": 33752,
    "name": "Level_Tower_Universe_01 (LevelEntity_ClearLocalGadgets)"
  },
  {
    "id": 33753,
    "name": "Level_Tower_Moon_01 (LevelEntity_ClearLocalGadgets)"
  },
  {
    "id": 33754,
    "name": "Level_Tower_Universe_01 (LevelEntity_ClearLocalGadgets)"
  },
  {
    "id": 33755,
    "name": "Level_Tower_Moon_01 (LevelEntity_ClearLocalGadgets)"
  },
  {
    "id": 33756,
    "name": "Level_Tower_Universe_01 (LevelEntity_ClearLocalGadgets)"
  },
  {
    "id": 33757,
    "name": "Level_Tower_Moon_01 (LevelEntity_ClearLocalGadgets)"
  },
  {
    "id": 33758,
    "name": "Level_Tower_Moon_01 (LevelEntity_ClearLocalGadgets)"
  },
  {
    "id": 33759,
    "name": "Level_Tower_Moon_01 (LevelEntity_ClearLocalGadgets)"
  },
  {
    "id": 33760,
    "name": "Level_Tower_Universe_01 (LevelEntity_ClearLocalGadgets)"
  },
  {
    "id": 34700,
    "name": "Level_Tower_Moon_01"
  },
  {
    "id": 34701,
    "name": "Level_Tower_Moon_01"
  },
  {
    "id": 34702,
    "name": "Level_Tower_Universe_01"
  },
  {
    "id": 34703,
    "name": "Level_Tower_Universe_01"
  },
  {
    "id": 34704,
    "name": "Level_Tower_Element_Ice_01"
  },
  {
    "id": 34705,
    "name": "Level_Tower_Element_Fire_01"
  },
  {
    "id": 34706,
    "name": "Level_Tower_Element_Ice_01"
  },
  {
    "id": 34707,
    "name": "Level_Tower_Element_Ice_01"
  },
  {
    "id": 34708,
    "name": "Level_Tower_Universe_01"
  },
  {
    "id": 34709,
    "name": "Level_Tower_Element_Thunder_01"
  },
  {
    "id": 34710,
    "name": "Level_Tower_Universe_01"
  },
  {
    "id": 34711,
    "name": "Level_Tower_Element_Water_01"
  },
  {
    "id": 34712,
    "name": "Level_Tower_Universe_01"
  },
  {
    "id": 34713,
    "name": "Level_Tower_Element_Ice_01"
  },
  {
    "id": 34714,
    "name": "Level_Tower_Element_Ice_01"
  },
  {
    "id": 34715,
    "name": "Level_Tower_Moon_01"
  },
  {
    "id": 34716,
    "name": "Level_Tower_Universe_01"
  },
  {
    "id": 34717,
    "name": "Level_Tower_Moon_01"
  },
  {
    "id": 34718,
    "name": "Level_Tower_Moon_01"
  },
  {
    "id": 34719,
    "name": "Level_Tower_Moon_01"
  },
  {
    "id": 34720,
    "name": "Level_Tower_Universe_01"
  },
  {
    "id": 34721,
    "name": "Level_Tower_Moon_01"
  },
  {
    "id": 34722,
    "name": "Level_Tower_Universe_01"
  },
  {
    "id": 34723,
    "name": "Level_Tower_Moon_01"
  },
  {
    "id": 34724,
    "name": "Level_Tower_Universe_01"
  },
  {
    "id": 34725,
    "name": "Level_Tower_Moon_01"
  },
  {
    "id": 34726,
    "name": "Level_Tower_Universe_01"
  },
  {
    "id": 34727,
    "name": "Level_Tower_Moon_01"
  },
  {
    "id": 34728,
    "name": "Level_Tower_Universe_01"
  },
  {
    "id": 34729,
    "name": "Level_Tower_Moon_01"
  },
  {
    "id": 34730,
    "name": "Level_Tower_Universe_01"
  },
  {
    "id": 34731,
    "name": "Level_Tower_Moon_01"
  },
  {
    "id": 34732,
    "name": "Level_Tower_Universe_01"
  },
  {
    "id": 34733,
    "name": "Level_Tower_Moon_01"
  },
  {
    "id": 34734,
    "name": "Level_Tower_Universe_01"
  },
  {
    "id": 34735,
    "name": "Level_Tower_Moon_01"
  },
  {
    "id": 34736,
    "name": "Level_Tower_Universe_01"
  },
  {
    "id": 34737,
    "name": "Level_Tower_Moon_01 (LevelEntity_ClearLocalGadgets)"
  },
  {
    "id": 34738,
    "name": "Level_Tower_Moon_01 (LevelEntity_ClearLocalGadgets)"
  },
  {
    "id": 34739,
    "name": "Level_Tower_Moon_01 (LevelEntity_ClearLocalGadgets)"
  },
  {
    "id": 34740,
    "name": "Level_Tower_Universe_01 (LevelEntity_ClearLocalGadgets)"
  },
  {
    "id": 34741,
    "name": "Level_Tower_Moon_01 (LevelEntity_ClearLocalGadgets)"
  },
  {
    "id": 34742,
    "name": "Level_Tower_Universe_01 (LevelEntity_ClearLocalGadgets)"
  },
  {
    "id": 34743,
    "name": "Level_Tower_Moon_01 (LevelEntity_ClearLocalGadgets)"
  },
  {
    "id": 34744,
    "name": "Level_Tower_Universe_01 (LevelEntity_ClearLocalGadgets)"
  },
  {
    "id": 34745,
    "name": "Level_Tower_Moon_01 (LevelEntity_ClearLocalGadgets)"
  },
  {
    "id": 34746,
    "name": "Level_Tower_Universe_01 (LevelEntity_ClearLocalGadgets)"
  },
  {
    "id": 34747,
    "name": "Level_Tower_Moon_01 (LevelEntity_ClearLocalGadgets)"
  },
  {
    "id": 34748,
    "name": "Level_Tower_Universe_01 (LevelEntity_ClearLocalGadgets)"
  },
  {
    "id": 34749,
    "name": "Level_Tower_Moon_01 (LevelEntity_ClearLocalGadgets)"
  },
  {
    "id": 34750,
    "name": "Level_Tower_Universe_01 (LevelEntity_ClearLocalGadgets)"
  },
  {
    "id": 34751,
    "name": "Level_Tower_Moon_01 (LevelEntity_ClearLocalGadgets)"
  },
  {
    "id": 34752,
    "name": "Level_Tower_Universe_01 (LevelEntity_ClearLocalGadgets)"
  },
  {
    "id": 34753,
    "name": "Level_Tower_Moon_01 (LevelEntity_ClearLocalGadgets)"
  },
  {
    "id": 34754,
    "name": "Level_Tower_Universe_01 (LevelEntity_ClearLocalGadgets)"
  },
  {
    "id": 34755,
    "name": "Level_Tower_Moon_01 (LevelEntity_ClearLocalGadgets)"
  },
  {
    "id": 34756,
    "name": "Level_Tower_Universe_01 (LevelEntity_ClearLocalGadgets)"
  },
  {
    "id": 34757,
    "name": "Level_Tower_Moon_01 (LevelEntity_ClearLocalGadgets)"
  },
  {
    "id": 34758,
    "name": "Level_Tower_Moon_01 (LevelEntity_ClearLocalGadgets)"
  },
  {
    "id": 34759,
    "name": "Level_Tower_Moon_01 (LevelEntity_ClearLocalGadgets)"
  },
  {
    "id": 34760,
    "name": "Level_Tower_Universe_01 (LevelEntity_ClearLocalGadgets)"
  },
  {
    "id": 35700,
    "name": "Level_Tower_Moon_01"
  },
  {
    "id": 35701,
    "name": "Level_Tower_Moon_01"
  },
  {
    "id": 35702,
    "name": "Level_Tower_Universe_01"
  },
  {
    "id": 35703,
    "name": "Level_Tower_Universe_01"
  },
  {
    "id": 35704,
    "name": "Level_Tower_Element_Ice_01"
  },
  {
    "id": 35705,
    "name": "Level_Tower_Element_Fire_01"
  },
  {
    "id": 35706,
    "name": "Level_Tower_Element_Ice_01"
  },
  {
    "id": 35707,
    "name": "Level_Tower_Element_Ice_01"
  },
  {
    "id": 35708,
    "name": "Level_Tower_Universe_01"
  },
  {
    "id": 35709,
    "name": "Level_Tower_Element_Thunder_01"
  },
  {
    "id": 35710,
    "name": "Level_Tower_Universe_01"
  },
  {
    "id": 35711,
    "name": "Level_Tower_Element_Water_01"
  },
  {
    "id": 35712,
    "name": "Level_Tower_Universe_01"
  },
  {
    "id": 35713,
    "name": "Level_Tower_Element_Ice_01"
  },
  {
    "id": 35714,
    "name": "Level_Tower_Element_Ice_01"
  },
  {
    "id": 35715,
    "name": "Level_Tower_Moon_01"
  },
  {
    "id": 35716,
    "name": "Level_Tower_Universe_01"
  },
  {
    "id": 35717,
    "name": "Level_Tower_Moon_01"
  },
  {
    "id": 35718,
    "name": "Level_Tower_Moon_01"
  },
  {
    "id": 35719,
    "name": "Level_Tower_Moon_01"
  },
  {
    "id": 35720,
    "name": "Level_Tower_Universe_01"
  },
  {
    "id": 35721,
    "name": "Level_Tower_Moon_01"
  },
  {
    "id": 35722,
    "name": "Level_Tower_Universe_01"
  },
  {
    "id": 35723,
    "name": "Level_Tower_Moon_01"
  },
  {
    "id": 35724,
    "name": "Level_Tower_Universe_01"
  },
  {
    "id": 35725,
    "name": "Level_Tower_Moon_01"
  },
  {
    "id": 35726,
    "name": "Level_Tower_Universe_01"
  },
  {
    "id": 35727,
    "name": "Level_Tower_Moon_01"
  },
  {
    "id": 35728,
    "name": "Level_Tower_Universe_01"
  },
  {
    "id": 35729,
    "name": "Level_Tower_Moon_01"
  },
  {
    "id": 35730,
    "name": "Level_Tower_Universe_01"
  },
  {
    "id": 35731,
    "name": "Level_Tower_Moon_01"
  },
  {
    "id": 35732,
    "name": "Level_Tower_Universe_01"
  },
  {
    "id": 35733,
    "name": "Level_Tower_Moon_01"
  },
  {
    "id": 35734,
    "name": "Level_Tower_Universe_01"
  },
  {
    "id": 35735,
    "name": "Level_Tower_Moon_01"
  },
  {
    "id": 35736,
    "name": "Level_Tower_Universe_01"
  },
  {
    "id": 35737,
    "name": "Level_Tower_Moon_01 (LevelEntity_ClearLocalGadgets)"
  },
  {
    "id": 35738,
    "name": "Level_Tower_Moon_01 (LevelEntity_ClearLocalGadgets)"
  },
  {
    "id": 35739,
    "name": "Level_Tower_Moon_01 (LevelEntity_ClearLocalGadgets)"
  },
  {
    "id": 35740,
    "name": "Level_Tower_Universe_01 (LevelEntity_ClearLocalGadgets)"
  },
  {
    "id": 35741,
    "name": "Level_Tower_Moon_01 (LevelEntity_ClearLocalGadgets)"
  },
  {
    "id": 35742,
    "name": "Level_Tower_Universe_01 (LevelEntity_ClearLocalGadgets)"
  },
  {
    "id": 35743,
    "name": "Level_Tower_Moon_01 (LevelEntity_ClearLocalGadgets)"
  },
  {
    "id": 35744,
    "name": "Level_Tower_Universe_01 (LevelEntity_ClearLocalGadgets)"
  },
  {
    "id": 35745,
    "name": "Level_Tower_Moon_01 (LevelEntity_ClearLocalGadgets)"
  },
  {
    "id": 35746,
    "name": "Level_Tower_Universe_01 (LevelEntity_ClearLocalGadgets)"
  },
  {
    "id": 35747,
    "name": "Level_Tower_Moon_01 (LevelEntity_ClearLocalGadgets)"
  },
  {
    "id": 35748,
    "name": "Level_Tower_Universe_01 (LevelEntity_ClearLocalGadgets)"
  },
  {
    "id": 35749,
    "name": "Level_Tower_Moon_01 (LevelEntity_ClearLocalGadgets)"
  },
  {
    "id": 35750,
    "name": "Level_Tower_Universe_01 (LevelEntity_ClearLocalGadgets)"
  },
  {
    "id": 35751,
    "name": "Level_Tower_Moon_01 (LevelEntity_ClearLocalGadgets)"
  },
  {
    "id": 35752,
    "name": "Level_Tower_Universe_01 (LevelEntity_ClearLocalGadgets)"
  },
  {
    "id": 35753,
    "name": "Level_Tower_Moon_01 (LevelEntity_ClearLocalGadgets)"
  },
  {
    "id": 35754,
    "name": "Level_Tower_Universe_01 (LevelEntity_ClearLocalGadgets)"
  },
  {
    "id": 35755,
    "name": "Level_Tower_Moon_01 (LevelEntity_ClearLocalGadgets)"
  },
  {
    "id": 35756,
    "name": "Level_Tower_Universe_01 (LevelEntity_ClearLocalGadgets)"
  },
  {
    "id": 35757,
    "name": "Level_Tower_Moon_01 (LevelEntity_ClearLocalGadgets)"
  },
  {
    "id": 35758,
    "name": "Level_Tower_Moon_01 (LevelEntity_ClearLocalGadgets)"
  },
  {
    "id": 35759,
    "name": "Level_Tower_Moon_01 (LevelEntity_ClearLocalGadgets)"
  },
  {
    "id": 35760,
    "name": "Level_Tower_Universe_01 (LevelEntity_ClearLocalGadgets)"
  },
  {
    "id": 35800,
    "name": "Level_CycleDungeon_WindFlower (Level_WindFlora_Dungeon)"
  },
  {
    "id": 35801,
    "name": "Level_ContestBattle01"
  },
  {
    "id": 35802,
    "name": "Level_ContestBattle01"
  },
  {
    "id": 35803,
    "name": "Level_ContestBattle01"
  },
  {
    "id": 35804,
    "name": "Level_ContestBattle01"
  },
  {
    "id": 35805,
    "name": "Level_ContestBattle01"
  },
  {
    "id": 35806,
    "name": "Level_ContestBattle01"
  },
  {
    "id": 35807,
    "name": "Level_ContestBattle01"
  },
  {
    "id": 35808,
    "name": "Level_ContestBattle01"
  },
  {
    "id": 35809,
    "name": "Level_ContestBattle01"
  },
  {
    "id": 35810,
    "name": "Level_ContestBattle01"
  },
  {
    "id": 35811,
    "name": "Level_ContestBattle01"
  },
  {
    "id": 35812,
    "name": "Level_ContestBattle01"
  },
  {
    "id": 35813,
    "name": "Level_ContestBattle01"
  },
  {
    "id": 35814,
    "name": "Level_ContestBattle01"
  },
  {
    "id": 35815,
    "name": "Level_ContestBattle01"
  },
  {
    "id": 35816,
    "name": "Level_ContestBattle01"
  },
  {
    "id": 35817,
    "name": "Level_ContestBattle01"
  },
  {
    "id": 35818,
    "name": "Level_ContestBattle01"
  },
  {
    "id": 35820,
    "name": "Level_FCdungeon_Qiqi"
  },
  {
    "id": 35821,
    "name": "Level_FCdungeon_Qiqi"
  },
  {
    "id": 35822,
    "name": "Level_FCdungeon_Qiqi"
  },
  {
    "id": 35823,
    "name": "Level_FCdungeon_Qiqi"
  },
  {
    "id": 35824,
    "name": "PlotLevel_XiangLingLevel_Xyd"
  },
  {
    "id": 35825,
    "name": "PlotLevel_XiangLingLevel_Xyd"
  },
  {
    "id": 35826,
    "name": "PlotLevel_XiangLingLevel_Xyd"
  },
  {
    "id": 35827,
    "name": "PlotLevel_XiangLingLevel_Xyd"
  },
  {
    "id": 35828,
    "name": "Level_FCdungeon_Cloud01"
  },
  {
    "id": 35829,
    "name": "Level_FCdungeon_Cloud01"
  },
  {
    "id": 35830,
    "name": "Level_FCdungeon_Cloud01"
  },
  {
    "id": 35831,
    "name": "Level_FCdungeon_Cloud01"
  },
  {
    "id": 35840,
    "name": "Level_CrystalLink_01"
  },
  {
    "id": 35841,
    "name": "Level_CrystalLink_01"
  },
  {
    "id": 35842,
    "name": "Level_CrystalLink_01"
  },
  {
    "id": 35843,
    "name": "Level_CrystalLink_01"
  },
  {
    "id": 35844,
    "name": "Level_CrystalLink_01"
  },
  {
    "id": 35845,
    "name": "Level_CrystalLink_01"
  },
  {
    "id": 35846,
    "name": "Level_DreamIsland_Xinyan01"
  },
  {
    "id": 35847,
    "name": "Level_DreamIsland_Xinyan01"
  },
  {
    "id": 35848,
    "name": "Level_DIKazuha04"
  },
  {
    "id": 35849,
    "name": "Level_DIKazuha04"
  },
  {
    "id": 35850,
    "name": "Level_DreamIsland_Fischl03"
  },
  {
    "id": 35851,
    "name": "Level_DreamIsland_Fischl03"
  },
  {
    "id": 35852,
    "name": "Level_DreamIsland_Mona01 (Level_DreamDungeon_Mona)"
  },
  {
    "id": 35853,
    "name": "Level_DreamIsland_Mona01 (Level_DreamDungeon_Mona)"
  },
  {
    "id": 35860,
    "name": "Level_SmrDungeon_Challenge"
  },
  {
    "id": 35861,
    "name": "Level_SmrDungeon_Challenge"
  },
  {
    "id": 35862,
    "name": "Level_SmrDungeon_Challenge"
  },
  {
    "id": 35863,
    "name": "Level_SmrDungeon_Challenge"
  },
  {
    "id": 35870,
    "name": "Level_BrickBreaker01"
  },
  {
    "id": 35871,
    "name": "Level_BrickBreaker01"
  },
  {
    "id": 35872,
    "name": "Level_BrickBreaker01"
  },
  {
    "id": 35873,
    "name": "Level_FungusFighter01"
  },
  {
    "id": 35874,
    "name": "Level_FungusFighter01"
  },
  {
    "id": 35875,
    "name": "Level_FungusFighter01"
  },
  {
    "id": 35876,
    "name": "Level_FungusFighter02"
  },
  {
    "id": 35877,
    "name": "Level_FungusFighter02"
  },
  {
    "id": 35878,
    "name": "Level_FungusFighter02"
  },
  {
    "id": 35879,
    "name": "Level_FungusFighter02"
  },
  {
    "id": 35880,
    "name": "Level_XM_BigLeaf"
  },
  {
    "id": 35881,
    "name": "Level_XM_BigLeaf"
  },
  {
    "id": 35882,
    "name": "Level_XM_BigLeaf"
  },
  {
    "id": 35883,
    "name": "Level_XM_BigLeaf"
  },
  {
    "id": 35884,
    "name": "Level_XM_BigLeaf"
  },
  {
    "id": 35890,
    "name": "Level_CrystalLink_01"
  },
  {
    "id": 35891,
    "name": "Level_CrystalLink_01"
  },
  {
    "id": 35892,
    "name": "Level_CrystalLink_01"
  },
  {
    "id": 35893,
    "name": "Level_CrystalLink_01"
  },
  {
    "id": 35894,
    "name": "Level_CrystalLink_01"
  },
  {
    "id": 35895,
    "name": "Level_CrystalLink_01"
  },
  {
    "id": 35896,
    "name": "Level_AkaFesRhythm01"
  },
  {
    "id": 35897,
    "name": "Level_AkaFesRhythm01"
  },
  {
    "id": 35898,
    "name": "Level_AkaFesRhythm01"
  },
  {
    "id": 35899,
    "name": "Level_FungusFighter01"
  },
  {
    "id": 35900,
    "name": "Level_AkaFesArc_01 (LevelEntity_Activity_V3_6_AkaFesCustomGrapplingHook)"
  },
  {
    "id": 35901,
    "name": "Level_AkaFesArc_01 (LevelEntity_Activity_V3_6_AkaFesCustomGrapplingHook)"
  },
  {
    "id": 35902,
    "name": "Level_AkaFesArc_01 (LevelEntity_Activity_V3_6_AkaFesCustomGrapplingHook)"
  },
  {
    "id": 35903,
    "name": "Level_SmrDungeon_Challenge"
  },
  {
    "id": 35904,
    "name": "Level_SmrDungeon_Challenge"
  },
  {
    "id": 35905,
    "name": "Level_SmrDungeon_Challenge"
  },
  {
    "id": 35906,
    "name": "Level_CycleDungeon_WindFlower"
  },
  {
    "id": 35907,
    "name": "Level_CycleDungeon_WindFlower"
  },
  {
    "id": 35908,
    "name": "Level_CycleDungeon_WindFlower"
  },
  {
    "id": 35909,
    "name": "Level_CycleDungeon_WindFlower"
  },
  {
    "id": 35910,
    "name": "Level_SmrDungeon_Challenge"
  },
  {
    "id": 35911,
    "name": "Level_SmrDungeon_Challenge"
  },
  {
    "id": 35912,
    "name": "Level_SmrDungeon_Challenge"
  },
  {
    "id": 35913,
    "name": "Level_SmrDungeon_Challenge"
  },
  {
    "id": 35914,
    "name": "Level_Activity_Circus (LevelEntity_Activity_Bladedance_BanItem)"
  },
  {
    "id": 35915,
    "name": "Level_Activity_Circus (LevelEntity_Activity_Bladedance_BanItem)"
  },
  {
    "id": 35916,
    "name": "Level_Activity_Circus (LevelEntity_Activity_Bladedance_BanItem)"
  },
  {
    "id": 35917,
    "name": "Level_Activity_Circus (LevelEntity_Activity_Bladedance_BanItem)"
  },
  {
    "id": 35918,
    "name": "Level_SmrDungeon_Challenge"
  },
  {
    "id": 35919,
    "name": "Level_SmrDungeon_Challenge"
  },
  {
    "id": 35920,
    "name": "Level_SmrDungeon_Challenge"
  },
  {
    "id": 35921,
    "name": "Level_SmrDungeon_Challenge"
  },
  {
    "id": 35922,
    "name": "Level_SmrDungeon_Challenge"
  },
  {
    "id": 40001,
    "name": "Level_UCDungeon02"
  },
  {
    "id": 40002,
    "name": "Level_UCDungeon01"
  },
  {
    "id": 40003,
    "name": "Level_UCDungeon01"
  },
  {
    "id": 40004,
    "name": "Level_KaeyaTutorialMission02"
  },
  {
    "id": 40005,
    "name": "Level_KaeyaTutorialMission01"
  },
  {
    "id": 40006,
    "name": "Level_KaeyaTutorialMission01"
  },
  {
    "id": 40007,
    "name": "Level_PFDungeon01"
  },
  {
    "id": 40008,
    "name": "Level_KaeyaTutorialMission02"
  },
  {
    "id": 40009,
    "name": "Level_AmborTutorialMission01"
  },
  {
    "id": 40010,
    "name": "Level_AmborTutorialMission01"
  },
  {
    "id": 40012,
    "name": "Level_LisaTutorialMission03"
  },
  {
    "id": 40013,
    "name": "Level_AmborTutorialMission01"
  },
  {
    "id": 40014,
    "name": "Level_LisaTutorialMission03"
  },
  {
    "id": 40015,
    "name": "Level_FCdungeon_Kettle01"
  },
  {
    "id": 40016,
    "name": "Level_FCdungeon_Cloud01"
  },
  {
    "id": 40017,
    "name": "Level_FCdungeon_Cloud01"
  },
  {
    "id": 40018,
    "name": "Level_FCdungeon_Kettle01"
  },
  {
    "id": 40019,
    "name": "Level_FCdungeon_Cloud01"
  },
  {
    "id": 40020,
    "name": "Level_FCdungeon_Cloud01"
  },
  {
    "id": 40021,
    "name": "Level_Challenge_Thunder01"
  },
  {
    "id": 40022,
    "name": "Level_ActivityBoss01_Wind"
  },
  {
    "id": 40023,
    "name": "Level_ActivityBoss01_Thunder"
  },
  {
    "id": 40024,
    "name": "Level_ActivityBoss01_Rock"
  },
  {
    "id": 40025,
    "name": "Level_ActivityBoss01_Wind"
  },
  {
    "id": 40026,
    "name": "Level_LisaTutorialMission03"
  },
  {
    "id": 40027,
    "name": "Level_ActivityBoss01_Wind"
  },
  {
    "id": 40028,
    "name": "Level_ActivityBoss01_Thunder"
  },
  {
    "id": 40029,
    "name": "Level_ActivityBoss01_Rock"
  },
  {
    "id": 40030,
    "name": "Level_LisaTutorialMission03"
  },
  {
    "id": 40031,
    "name": "Level_LisaTutorialMission03"
  },
  {
    "id": 40032,
    "name": "Level_LisaTutorialMission03"
  },
  {
    "id": 40033,
    "name": "Level_LisaTutorialMission03"
  },
  {
    "id": 40034,
    "name": "Level_LisaTutorialMission03"
  },
  {
    "id": 40035,
    "name": "Level_LisaTutorialMission03"
  },
  {
    "id": 40036,
    "name": "Level_LisaTutorialMission03"
  },
  {
    "id": 40037,
    "name": "Level_Tower_Universe_01"
  },
  {
    "id": 40038,
    "name": "Level_Tower_Universe_01"
  },
  {
    "id": 40039,
    "name": "Level_Tower_Element_Water_01"
  },
  {
    "id": 40040,
    "name": "Level_Tower_Element_Water_01"
  },
  {
    "id": 40041,
    "name": "Level_ActivityBoss02_Water"
  },
  {
    "id": 40042,
    "name": "Level_ActivityBoss02_Water"
  },
  {
    "id": 40043,
    "name": "Level_ActivityBoss02_Water"
  },
  {
    "id": 40044,
    "name": "Level_HFDungeon01"
  },
  {
    "id": 40045,
    "name": "Level_HFDungeon02"
  },
  {
    "id": 40046,
    "name": "Level_Tower_Element_Water_01"
  },
  {
    "id": 40047,
    "name": "Level_HFDungeon02"
  },
  {
    "id": 40048,
    "name": "Level_HFDungeon01"
  },
  {
    "id": 40049,
    "name": "Level_HFDungeon02"
  },
  {
    "id": 40050,
    "name": "Level_HFDungeon_wq"
  },
  {
    "id": 40051,
    "name": "Level_XMDungeon_WQ01 (Level_Dungeon)"
  },
  {
    "id": 40052,
    "name": "Level_XMDungeon_WQ03 (Level_Dungeon)"
  },
  {
    "id": 40053,
    "name": "Level_XMDungeon_WQ01 (Level_Dungeon)"
  },
  {
    "id": 40054,
    "name": "Level_XMDungeon_WQ04 (Level_Dungeon)"
  },
  {
    "id": 40055,
    "name": "Level_ActivityBoss01_Wind (Level_EffigyChallenge)"
  },
  {
    "id": 40056,
    "name": "Level_ActivityBoss01_Wind (Level_EffigyChallenge)"
  },
  {
    "id": 40057,
    "name": "Level_ActivityBoss01_Wind (Level_EffigyChallenge)"
  },
  {
    "id": 40058,
    "name": "Level_ActivityBoss01_Wind (Level_EffigyChallenge)"
  },
  {
    "id": 40059,
    "name": "Level_ActivityBoss01_Wind (Level_EffigyChallenge)"
  },
  {
    "id": 40060,
    "name": "Level_ActivityBoss01_Wind (Level_EffigyChallenge)"
  },
  {
    "id": 40061,
    "name": "Level_ActivityBoss01_Wind (Level_EffigyChallenge)"
  },
  {
    "id": 40062,
    "name": "Level_ActivityBoss01_Wind (Level_EffigyChallenge)"
  },
  {
    "id": 40063,
    "name": "Level_Smr_LostCity (Level_Dungeon)"
  },
  {
    "id": 40064,
    "name": "Level_Smr_LostCity (Level_Dungeon)"
  },
  {
    "id": 40065,
    "name": "Level_XM_BigLeaf"
  },
  {
    "id": 40066,
    "name": "Level_SmrDungeon_Challenge"
  },
  {
    "id": 40067,
    "name": "Level_Tower_Moon_02 (Level_EffigyChallengeV4_40067)"
  },
  {
    "id": 40068,
    "name": "Level_Tower_Moon_02 (Level_EffigyChallengeV4_40068)"
  },
  {
    "id": 40069,
    "name": "Level_Tower_Moon_02 (Level_EffigyChallengeV4_40069)"
  },
  {
    "id": 40070,
    "name": "Level_Tower_Moon_02 (Level_EffigyChallengeV4_40070)"
  },
  {
    "id": 40100,
    "name": "Level_CycleDungeon01_Fire"
  },
  {
    "id": 40101,
    "name": "Level_CycleDungeon01_Fire"
  },
  {
    "id": 40102,
    "name": "Level_CycleDungeon01_Fire"
  },
  {
    "id": 40103,
    "name": "Level_CycleDungeon01_Fire"
  },
  {
    "id": 40104,
    "name": "Level_CycleDungeon01_Fire"
  },
  {
    "id": 40105,
    "name": "Level_CycleDungeon01_Fire"
  },
  {
    "id": 40200,
    "name": "Level_CycleDungeon01_Ice"
  },
  {
    "id": 40201,
    "name": "Level_CycleDungeon01_Ice"
  },
  {
    "id": 40202,
    "name": "Level_CycleDungeon01_Ice"
  },
  {
    "id": 40203,
    "name": "Level_CycleDungeon01_Ice"
  },
  {
    "id": 40300,
    "name": "Level_CycleDungeon01_Water"
  },
  {
    "id": 40301,
    "name": "Level_CycleDungeon01_Water"
  },
  {
    "id": 40302,
    "name": "Level_CycleDungeon01_Water"
  },
  {
    "id": 40303,
    "name": "Level_CycleDungeon01_Water"
  },
  {
    "id": 40400,
    "name": "Level_CycleDungeon01_Thunder"
  },
  {
    "id": 40401,
    "name": "Level_CycleDungeon01_Thunder"
  },
  {
    "id": 40402,
    "name": "Level_CycleDungeon01_Thunder"
  },
  {
    "id": 40403,
    "name": "Level_CycleDungeon01_Thunder"
  },
  {
    "id": 40404,
    "name": "Level_CycleDungeon01_Snow"
  },
  {
    "id": 40405,
    "name": "Level_CycleDungeon01_Thunder"
  },
  {
    "id": 40406,
    "name": "Level_CycleDungeon01_Thunder"
  },
  {
    "id": 40407,
    "name": "Level_CycleDungeon01_Thunder"
  },
  {
    "id": 40408,
    "name": "Level_CycleDungeon01_Snow"
  },
  {
    "id": 40409,
    "name": "Level_CycleDungeon01_Snow"
  },
  {
    "id": 40410,
    "name": "Level_CycleDungeon01_Snow"
  },
  {
    "id": 40500,
    "name": "Level_CycleDungeon02_Morning"
  },
  {
    "id": 40501,
    "name": "Level_CycleDungeon02_Morning"
  },
  {
    "id": 40502,
    "name": "Level_CycleDungeon02_Morning"
  },
  {
    "id": 40503,
    "name": "Level_CycleDungeon02_Dusk"
  },
  {
    "id": 40504,
    "name": "Level_CycleDungeon02_Dusk"
  },
  {
    "id": 40505,
    "name": "Level_CycleDungeon02_Night"
  },
  {
    "id": 40506,
    "name": "Level_CycleDungeon02_Night"
  },
  {
    "id": 40507,
    "name": "Level_CycleDungeon02_Normal"
  },
  {
    "id": 40508,
    "name": "Level_CycleDungeon02_Morning"
  },
  {
    "id": 40509,
    "name": "Level_CycleDungeon02_Dusk"
  },
  {
    "id": 40510,
    "name": "Level_CycleDungeon02_Dusk"
  },
  {
    "id": 40511,
    "name": "Level_CycleDungeon02_Night"
  },
  {
    "id": 40512,
    "name": "Level_CycleDungeon02_Night"
  },
  {
    "id": 40513,
    "name": "Level_CycleDungeon02_Normal"
  },
  {
    "id": 40514,
    "name": "Level_CycleDungeon02_Morning"
  },
  {
    "id": 40515,
    "name": "Level_CycleDungeon02_Morning"
  },
  {
    "id": 40516,
    "name": "Level_CycleDungeon02_Night"
  },
  {
    "id": 40517,
    "name": "Level_CycleDungeon02_Night"
  },
  {
    "id": 40600,
    "name": "Level_CycleDungeon02_Morning"
  },
  {
    "id": 40601,
    "name": "Level_CycleDungeon02_Morning"
  },
  {
    "id": 40602,
    "name": "Level_CycleDungeon02_Dusk"
  },
  {
    "id": 40603,
    "name": "Level_CycleDungeon02_Dusk"
  },
  {
    "id": 40604,
    "name": "Level_CycleDungeon02_Night"
  },
  {
    "id": 40605,
    "name": "Level_CycleDungeon02_Night"
  },
  {
    "id": 40606,
    "name": "Level_CycleDungeon02_Normal"
  },
  {
    "id": 40607,
    "name": "Level_CycleDungeon02_Dusk"
  },
  {
    "id": 40608,
    "name": "Level_CycleDungeon02_Dusk"
  },
  {
    "id": 40609,
    "name": "Level_CycleDungeon02_Night"
  },
  {
    "id": 40610,
    "name": "Level_CycleDungeon02_Night"
  },
  {
    "id": 40611,
    "name": "Level_CycleDungeon02_Normal"
  },
  {
    "id": 40612,
    "name": "Level_CycleDungeon02_Dusk"
  },
  {
    "id": 40613,
    "name": "Level_CycleDungeon02_Night"
  },
  {
    "id": 40614,
    "name": "Level_CycleDungeon02_Night"
  },
  {
    "id": 40615,
    "name": "Level_CycleDungeon02_Night"
  },
  {
    "id": 40616,
    "name": "Level_Daily_Water"
  },
  {
    "id": 40617,
    "name": "Level_CycleDungeon02_Chasm"
  },
  {
    "id": 40618,
    "name": "Level_CycleDungeon02_Chasm"
  },
  {
    "id": 40619,
    "name": "Level_CycleDungeon02_Chasm"
  },
  {
    "id": 40620,
    "name": "Level_CycleDungeon02_Chasm"
  },
  {
    "id": 40650,
    "name": "Level_Cycle01_XM03"
  },
  {
    "id": 40651,
    "name": "Level_Cycle01_XM03"
  },
  {
    "id": 40652,
    "name": "Level_Cycle01_XM03"
  },
  {
    "id": 40653,
    "name": "Level_Cycle01_XM03"
  },
  {
    "id": 40660,
    "name": "Level_Cycle01_XM04"
  },
  {
    "id": 40661,
    "name": "Level_Cycle01_XM04"
  },
  {
    "id": 40662,
    "name": "Level_Cycle01_XM04"
  },
  {
    "id": 40663,
    "name": "Level_Cycle01_XM04"
  },
  {
    "id": 40664,
    "name": "Level_Cycle01_XM04"
  },
  {
    "id": 40665,
    "name": "Level_Cycle01_XM04"
  },
  {
    "id": 40666,
    "name": "Level_Cycle01_XM04"
  },
  {
    "id": 40667,
    "name": "Level_Cycle01_XM04"
  },
  {
    "id": 40700,
    "name": "Level_CycleDungeon01_Rock (TestLevel_Element_Evn_Rock)"
  },
  {
    "id": 40701,
    "name": "Level_CycleDungeon01_Rock (TestLevel_Element_Evn_Rock)"
  },
  {
    "id": 40702,
    "name": "Level_CycleDungeon01_Rock (TestLevel_Element_Evn_Rock)"
  },
  {
    "id": 40703,
    "name": "Level_CycleDungeon01_Rock (TestLevel_Element_Evn_Rock)"
  },
  {
    "id": 40750,
    "name": "Level_Cycle02_XM02"
  },
  {
    "id": 40751,
    "name": "Level_Cycle02_XM02"
  },
  {
    "id": 40752,
    "name": "Level_Cycle02_XM02"
  },
  {
    "id": 40753,
    "name": "Level_Cycle02_XM02"
  },
  {
    "id": 40754,
    "name": "Level_Cycle01_XM02"
  },
  {
    "id": 40755,
    "name": "Level_Cycle01_XM02"
  },
  {
    "id": 40756,
    "name": "Level_Cycle01_XM02"
  },
  {
    "id": 40757,
    "name": "Level_Cycle01_XM02"
  },
  {
    "id": 40760,
    "name": "Level_Cycle_Fontaine01"
  },
  {
    "id": 40761,
    "name": "Level_Cycle_Fontaine01"
  },
  {
    "id": 40762,
    "name": "Level_Cycle_Fontaine01"
  },
  {
    "id": 40763,
    "name": "Level_Cycle_Fontaine01"
  },
  {
    "id": 40770,
    "name": "Level_Cycle_Fontaine02"
  },
  {
    "id": 40771,
    "name": "Level_Cycle_Fontaine02"
  },
  {
    "id": 40772,
    "name": "Level_Cycle_Fontaine02"
  },
  {
    "id": 40773,
    "name": "Level_Cycle_Fontaine02"
  },
  {
    "id": 40780,
    "name": "Level_Cycle_Fontaine03"
  },
  {
    "id": 40781,
    "name": "Level_Cycle_Fontaine03"
  },
  {
    "id": 40782,
    "name": "Level_Cycle_Fontaine03"
  },
  {
    "id": 40783,
    "name": "Level_Cycle_Fontaine03"
  },
  {
    "id": 40800,
    "name": "Level_CycleDungeon02_ThunderCave_Dq"
  },
  {
    "id": 40801,
    "name": "Level_CycleDungeon02_ThunderCave_Dq"
  },
  {
    "id": 40802,
    "name": "Level_CycleDungeon02_ThunderCave_Dq"
  },
  {
    "id": 40803,
    "name": "Level_CycleDungeon02_ThunderCave_Dq"
  },
  {
    "id": 40804,
    "name": "Level_CycleDungeon02_ThunderCave_Dq"
  },
  {
    "id": 40805,
    "name": "Level_CycleDungeon01_Thunder"
  },
  {
    "id": 40806,
    "name": "Level_CycleDungeon02_ThunderCave_Dq"
  },
  {
    "id": 40807,
    "name": "Level_CycleDungeon02_ThunderCave_Dq"
  },
  {
    "id": 40808,
    "name": "Level_CycleDungeon02_ThunderCave_Dq"
  },
  {
    "id": 40809,
    "name": "Level_CycleDungeon02_ThunderCave_Dq"
  },
  {
    "id": 40900,
    "name": "Level_CycleDungeon01_Rock (TestLevel_Element_Evn_Rock)"
  },
  {
    "id": 40901,
    "name": "Level_CycleDungeon01_Rock (TestLevel_Element_Evn_Rock)"
  },
  {
    "id": 40902,
    "name": "Level_CycleDungeon01_Rock (TestLevel_Element_Evn_Rock)"
  },
  {
    "id": 40903,
    "name": "Level_CycleDungeon01_Rock (TestLevel_Element_Evn_Rock)"
  },
  {
    "id": 40950,
    "name": "Level_CycleDungeon01_Thunder_Dq"
  },
  {
    "id": 40951,
    "name": "Level_CycleDungeon01_Thunder_Dq"
  },
  {
    "id": 40952,
    "name": "Level_CycleDungeon01_Thunder_Dq"
  },
  {
    "id": 40953,
    "name": "Level_CycleDungeon01_Thunder_Dq"
  },
  {
    "id": 41000,
    "name": "Level_Tower_01_Open"
  },
  {
    "id": 41001,
    "name": "Level_Tower_01_Open"
  },
  {
    "id": 41002,
    "name": "Level_Tower_01_Open"
  },
  {
    "id": 41003,
    "name": "Level_Tower_01_Open"
  },
  {
    "id": 41004,
    "name": "Level_Tower_01_Open"
  },
  {
    "id": 41005,
    "name": "Level_Tower_01_Open"
  },
  {
    "id": 41006,
    "name": "Level_Tower_01_Open"
  },
  {
    "id": 41007,
    "name": "Level_Tower_01_Open"
  },
  {
    "id": 41008,
    "name": "Level_Tower_01_Open"
  },
  {
    "id": 41009,
    "name": "Level_Tower_01_Open"
  },
  {
    "id": 41010,
    "name": "Level_Tower_01_Open"
  },
  {
    "id": 41011,
    "name": "Level_Tower_01_Open"
  },
  {
    "id": 41012,
    "name": "Level_Tower_01_Open"
  },
  {
    "id": 41013,
    "name": "Level_Tower_01_Open"
  },
  {
    "id": 41014,
    "name": "Level_Tower_01_Open"
  },
  {
    "id": 41015,
    "name": "Level_Tower_01_Open"
  },
  {
    "id": 41016,
    "name": "Level_Tower_01_Open"
  },
  {
    "id": 41017,
    "name": "Level_Tower_01_Open"
  },
  {
    "id": 41018,
    "name": "Level_Tower_01_Open"
  },
  {
    "id": 41019,
    "name": "Level_Tower_01_Open"
  },
  {
    "id": 41020,
    "name": "Level_Tower_01_Open"
  },
  {
    "id": 41021,
    "name": "Level_Tower_01_Open"
  },
  {
    "id": 41022,
    "name": "Level_Tower_01_Open"
  },
  {
    "id": 41023,
    "name": "Level_Tower_01_Open"
  },
  {
    "id": 41024,
    "name": "Level_Tower_01_Open"
  },
  {
    "id": 41025,
    "name": "Level_Tower_01_Open"
  },
  {
    "id": 41026,
    "name": "Level_Tower_01_Open"
  },
  {
    "id": 41027,
    "name": "Level_Tower_01_Open"
  },
  {
    "id": 41028,
    "name": "Level_Tower_01_Open"
  },
  {
    "id": 41029,
    "name": "Level_Tower_01_Open"
  },
  {
    "id": 41030,
    "name": "Level_Tower_01_Open"
  },
  {
    "id": 41031,
    "name": "Level_Tower_01_Open"
  },
  {
    "id": 41032,
    "name": "Level_Tower_01_Open"
  },
  {
    "id": 41033,
    "name": "Level_Tower_01_Open"
  },
  {
    "id": 41034,
    "name": "Level_Tower_01_Open"
  },
  {
    "id": 41035,
    "name": "Level_Tower_01_Open"
  },
  {
    "id": 41036,
    "name": "Level_Tower_01_Open"
  },
  {
    "id": 41037,
    "name": "Level_Tower_01_Open"
  },
  {
    "id": 41038,
    "name": "Level_Tower_01_Open"
  },
  {
    "id": 41039,
    "name": "Level_Tower_01_Open"
  },
  {
    "id": 41040,
    "name": "Level_Tower_01_Open"
  },
  {
    "id": 41041,
    "name": "Level_Tower_01_Open"
  },
  {
    "id": 41042,
    "name": "Level_Tower_01_Open"
  },
  {
    "id": 41043,
    "name": "Level_Tower_01_Open"
  },
  {
    "id": 41044,
    "name": "Level_Tower_01_Open"
  },
  {
    "id": 41045,
    "name": "Level_Tower_01_Open"
  },
  {
    "id": 41046,
    "name": "Level_Tower_01_Open"
  },
  {
    "id": 41047,
    "name": "Level_Tower_01_Open"
  },
  {
    "id": 41048,
    "name": "Level_Tower_01_Open"
  },
  {
    "id": 41049,
    "name": "Level_Tower_01_Open"
  },
  {
    "id": 41050,
    "name": "Level_Tower_01_Open"
  },
  {
    "id": 41051,
    "name": "Level_Tower_01_Open"
  },
  {
    "id": 41052,
    "name": "Level_Tower_01_Open"
  },
  {
    "id": 41053,
    "name": "Level_Tower_01_Open"
  },
  {
    "id": 41054,
    "name": "Level_Tower_01_Open"
  },
  {
    "id": 41055,
    "name": "Level_Tower_01_Open"
  },
  {
    "id": 41056,
    "name": "Level_Tower_01_Open"
  },
  {
    "id": 41057,
    "name": "Level_Tower_01_Open"
  },
  {
    "id": 41058,
    "name": "Level_Tower_01_Open"
  },
  {
    "id": 41059,
    "name": "Level_Tower_01_Open"
  },
  {
    "id": 41060,
    "name": "Level_Tower_01_Open"
  },
  {
    "id": 41061,
    "name": "Level_Tower_01_Open"
  },
  {
    "id": 41062,
    "name": "Level_Tower_01_Open"
  },
  {
    "id": 41063,
    "name": "Level_Tower_01_Open"
  },
  {
    "id": 41064,
    "name": "Level_Tower_01_Open"
  },
  {
    "id": 41065,
    "name": "Level_Tower_01_Open"
  },
  {
    "id": 41066,
    "name": "Level_Tower_01_Open"
  },
  {
    "id": 41067,
    "name": "Level_Tower_01_Open"
  },
  {
    "id": 41068,
    "name": "Level_Tower_01_Open"
  },
  {
    "id": 41069,
    "name": "Level_Tower_01_Open"
  },
  {
    "id": 41070,
    "name": "Level_Tower_01_Open"
  },
  {
    "id": 41071,
    "name": "Level_Tower_01_Open"
  },
  {
    "id": 41072,
    "name": "Level_Tower_01_Open"
  },
  {
    "id": 41073,
    "name": "Level_Tower_01_Open"
  },
  {
    "id": 41074,
    "name": "Level_Tower_01_Open"
  },
  {
    "id": 41075,
    "name": "Level_Tower_01_Open"
  },
  {
    "id": 42001,
    "name": "Level_PFDungeon02_Active01"
  },
  {
    "id": 42002,
    "name": "Level_PFDungeon02_Active02"
  },
  {
    "id": 42003,
    "name": "Level_PFDungeon02_Active07"
  },
  {
    "id": 42004,
    "name": "Level_PFDungeon02_Active06"
  },
  {
    "id": 42005,
    "name": "Level_PFDungeon02_Active05"
  },
  {
    "id": 42006,
    "name": "Level_PFDungeon02_Active03"
  },
  {
    "id": 42007,
    "name": "Level_PFDungeon02_Active04"
  },
  {
    "id": 42008,
    "name": "Level_PFDungeon02_Active07"
  },
  {
    "id": 42009,
    "name": "Level_PFDungeon02_Active02"
  },
  {
    "id": 42010,
    "name": "Level_PFDungeon02_Active01"
  },
  {
    "id": 42011,
    "name": "Level_PFDungeon02_Active05"
  },
  {
    "id": 42012,
    "name": "Level_PFDungeon02_Active04"
  },
  {
    "id": 42013,
    "name": "Level_PFDungeon02_Active07"
  },
  {
    "id": 42014,
    "name": "Level_PFDungeon02_Active03"
  },
  {
    "id": 43001,
    "name": "Level_FCdungeon_MistTrial"
  },
  {
    "id": 43002,
    "name": "Level_FCdungeon_MistTrial"
  },
  {
    "id": 43003,
    "name": "Level_FCdungeon_MistTrial"
  },
  {
    "id": 43004,
    "name": "Level_FCdungeon_MistTrial"
  },
  {
    "id": 43005,
    "name": "Level_FCdungeon_MistTrial"
  },
  {
    "id": 43006,
    "name": "Level_FCdungeon_MistTrial"
  },
  {
    "id": 43007,
    "name": "Level_FCdungeon_MistTrial"
  },
  {
    "id": 43008,
    "name": "Level_FCdungeon_MistTrial"
  },
  {
    "id": 43009,
    "name": "Level_FCdungeon_MistTrial"
  },
  {
    "id": 43010,
    "name": "Level_FCdungeon_MistTrial"
  },
  {
    "id": 43011,
    "name": "Level_FCdungeon_MistTrial"
  },
  {
    "id": 43012,
    "name": "Level_FCdungeon_MistTrial"
  },
  {
    "id": 43013,
    "name": "Level_FCdungeon_MistTrial"
  },
  {
    "id": 44001,
    "name": "Level_PFDungeon01"
  },
  {
    "id": 44002,
    "name": "Level_KaeyaTutorialMission02"
  },
  {
    "id": 44003,
    "name": "PlotLevel_XiangLingLevel_Xyd"
  },
  {
    "id": 44004,
    "name": "Level_Tower_Dusk_01"
  },
  {
    "id": 44005,
    "name": "Level_Tower_Moon_01"
  },
  {
    "id": 44006,
    "name": "Level_Tower_Element_Thunder_01"
  },
  {
    "id": 44007,
    "name": "Level_Tower_Universe_01"
  },
  {
    "id": 44011,
    "name": "Level_Tower_Moon_01"
  },
  {
    "id": 44012,
    "name": "Level_Tower_Night_01"
  },
  {
    "id": 44013,
    "name": "Level_Tower_Moon_01"
  },
  {
    "id": 45000,
    "name": "Level_PFDungeon02_ReActive02"
  },
  {
    "id": 45001,
    "name": "Level_PFDungeon02_ReActive01"
  },
  {
    "id": 45002,
    "name": "Level_PFDungeon02_ReActive02"
  },
  {
    "id": 45003,
    "name": "Level_PFDungeon02_ReActive03"
  },
  {
    "id": 45004,
    "name": "Level_PFDungeon02_ReActive04"
  },
  {
    "id": 45005,
    "name": "Level_PFDungeon02_ReActive05"
  },
  {
    "id": 45006,
    "name": "Level_PFDungeon02_ReActive06"
  },
  {
    "id": 45007,
    "name": "Level_PFDungeon02_ReActive05"
  },
  {
    "id": 45008,
    "name": "Level_PFDungeon02_ReActive01"
  },
  {
    "id": 45009,
    "name": "Level_PFDungeon02_ReActive02"
  },
  {
    "id": 45010,
    "name": "Level_PFDungeon02_ReActive03"
  },
  {
    "id": 45011,
    "name": "Level_PFDungeon02_ReActive04"
  },
  {
    "id": 45012,
    "name": "Level_PFDungeon02_ReActive05"
  },
  {
    "id": 45013,
    "name": "Level_PFDungeon02_Active08"
  },
  {
    "id": 45014,
    "name": "Level_PFDungeon02_Active02"
  },
  {
    "id": 45015,
    "name": "Level_PFDungeon02_Active03"
  },
  {
    "id": 45016,
    "name": "Level_PFDungeon02_Active04"
  },
  {
    "id": 45017,
    "name": "Level_PFDungeon02_Active08"
  },
  {
    "id": 45018,
    "name": "Level_PFDungeon02_Active02"
  },
  {
    "id": 45019,
    "name": "Level_PFDungeon02_Active03"
  },
  {
    "id": 45020,
    "name": "Level_PFDungeon02_Active04"
  },
  {
    "id": 45050,
    "name": "Level_CustomLevel_A_01 (Level_UGC_Dungeon)"
  },
  {
    "id": 45051,
    "name": "Level_CustomLevel_A_02 (Level_UGC_Dungeon)"
  },
  {
    "id": 45052,
    "name": "Level_CustomLevel_A_03 (Level_UGC_Dungeon)"
  },
  {
    "id": 45053,
    "name": "Level_CustomLevel_A_04 (Level_UGC_Dungeon)"
  },
  {
    "id": 45054,
    "name": "Level_CustomLevel_A_05 (Level_UGC_Dungeon)"
  },
  {
    "id": 45055,
    "name": "Level_CustomLevel_A_01 (Level_UGC_Dungeon)"
  },
  {
    "id": 45056,
    "name": "Level_CustomLevel_A_02 (Level_UGC_Dungeon)"
  },
  {
    "id": 45057,
    "name": "Level_CustomLevel_A_03 (Level_UGC_Dungeon)"
  },
  {
    "id": 45058,
    "name": "Level_CustomLevel_A_04 (Level_UGC_Dungeon)"
  },
  {
    "id": 45059,
    "name": "Level_CustomLevel_A_05 (Level_UGC_Dungeon)"
  },
  {
    "id": 46001,
    "name": "Level_Tower_Universe_01"
  },
  {
    "id": 46101,
    "name": "Level_HFDungeon_Prison01"
  },
  {
    "id": 46201,
    "name": "Level_CYDungeon_ActivityRouge01 (LevelEntity_Activity_V2_7_CYRogue_46201)"
  },
  {
    "id": 46202,
    "name": "Level_CYDungeon_Activy02 (LevelEntity_Activity_V2_7_CYRogue_46202)"
  },
  {
    "id": 46203,
    "name": "Level_CYDungeon_Activy03 (LevelEntity_Activity_V2_7_CYRogue_46203)"
  },
  {
    "id": 46300,
    "name": "Level_SmrDungeon_Challenge"
  },
  {
    "id": 46301,
    "name": "Level_FCdungeon_Cloud01"
  },
  {
    "id": 46302,
    "name": "Level_SmrDungeon_Challenge"
  },
  {
    "id": 46303,
    "name": "Level_SmrDungeon_Challenge"
  },
  {
    "id": 46304,
    "name": "Level_FCdungeon_Cloud01"
  },
  {
    "id": 46305,
    "name": "Level_FCdungeon_Cloud01"
  },
  {
    "id": 46306,
    "name": "Level_FCdungeon_Cloud01"
  },
  {
    "id": 47001,
    "name": "Level_OnmyoMaze_01"
  },
  {
    "id": 47002,
    "name": "Level_OnmyoMaze_05"
  },
  {
    "id": 47003,
    "name": "Level_OnmyoMaze_03"
  },
  {
    "id": 47004,
    "name": "Level_OnmyoMaze_04"
  },
  {
    "id": 47005,
    "name": "Level_OnmyoMaze_02"
  },
  {
    "id": 47006,
    "name": "Level_OnmyoMaze_06"
  },
  {
    "id": 47007,
    "name": "Level_OnmyoMaze_07"
  },
  {
    "id": 47008,
    "name": "Level_OnmyoMaze_08"
  },
  {
    "id": 47009,
    "name": "Level_OnmyoMaze_01"
  },
  {
    "id": 47010,
    "name": "Level_OnmyoMaze_05"
  },
  {
    "id": 47011,
    "name": "Level_OnmyoMaze_05"
  },
  {
    "id": 47012,
    "name": "TestLevel_Dq_Rouge_SLL03"
  },
  {
    "id": 47013,
    "name": "Level_OnmyoMaze_03"
  },
  {
    "id": 47014,
    "name": "TestLevel_Dq_Rouge_SLL05"
  },
  {
    "id": 47015,
    "name": "TestLevel_Dq_Rouge_SLL06"
  },
  {
    "id": 47016,
    "name": "TestLevel_Dq_Rouge_LX01"
  },
  {
    "id": 47017,
    "name": "TestLevel_Dq_Rouge_LX02"
  },
  {
    "id": 47018,
    "name": "TestLevel_Dq_Rouge_LX03"
  },
  {
    "id": 47019,
    "name": "TestLevel_Dq_Rouge_LX04"
  },
  {
    "id": 47020,
    "name": "TestLevel_Dq_Rouge_LX05"
  },
  {
    "id": 47021,
    "name": "Level_WindDungeon_01"
  },
  {
    "id": 47022,
    "name": "Level_WindDungeon_02"
  },
  {
    "id": 47023,
    "name": "Level_WindDungeon_03"
  },
  {
    "id": 47024,
    "name": "Level_WindDungeon_04"
  },
  {
    "id": 47025,
    "name": "Level_WindDungeon_01"
  },
  {
    "id": 47101,
    "name": "Level_FungusFighter (LevelEntity_Activity_V3_2_MushroomBeastBattle)"
  },
  {
    "id": 47102,
    "name": "Level_FungusFighter (LevelEntity_Activity_V3_2_MushroomBeastBattle)"
  },
  {
    "id": 47103,
    "name": "Level_FungusFighter (LevelEntity_Activity_V3_2_MushroomBeastBattle)"
  },
  {
    "id": 47201,
    "name": "Level_Smr_LostCity (LevelEntity_Activity_V3_3_LostCity_47201)"
  },
  {
    "id": 47202,
    "name": "Level_Smr_LostCity (LevelEntity_Activity_V3_3_LostCity_47202)"
  },
  {
    "id": 47203,
    "name": "Level_Smr_LostCity (LevelEntity_Activity_V3_3_LostCity_47203)"
  },
  {
    "id": 47204,
    "name": "Level_Smr_LostCity (LevelEntity_Activity_V3_3_LostCity_47204)"
  },
  {
    "id": 47205,
    "name": "Level_Smr_LostCity (LevelEntity_Activity_V3_3_LostCity_47205)"
  },
  {
    "id": 47206,
    "name": "Level_Smr_LostCity (LevelEntity_Activity_V3_3_LostCity_47206)"
  },
  {
    "id": 47207,
    "name": "Level_Smr_LostCity (LevelEntity_Activity_V3_3_LostCity_47207)"
  },
  {
    "id": 47301,
    "name": "Level_ContestBattle01"
  },
  {
    "id": 47302,
    "name": "Level_ContestBattle01"
  },
  {
    "id": 47303,
    "name": "Level_ContestBattle01"
  },
  {
    "id": 47304,
    "name": "Level_ContestBattle01"
  },
  {
    "id": 47305,
    "name": "Level_ContestBattle01"
  },
  {
    "id": 47306,
    "name": "Level_ContestBattle01"
  },
  {
    "id": 47307,
    "name": "Level_ContestBattle01"
  },
  {
    "id": 47401,
    "name": "Level_PacMan_01"
  },
  {
    "id": 47402,
    "name": "Level_PacMan_02"
  },
  {
    "id": 47403,
    "name": "Level_PacMan_01"
  },
  {
    "id": 47404,
    "name": "Level_PacMan_02"
  },
  {
    "id": 47405,
    "name": "Level_PacMan_03"
  },
  {
    "id": 47406,
    "name": "Level_PacMan_03"
  },
  {
    "id": 47501,
    "name": "Level_Custom_Play01 (Level_UGC_Dungeon_02)"
  },
  {
    "id": 47502,
    "name": "Level_Custom_Edit01"
  },
  {
    "id": 47601,
    "name": "Level_CloudCombat_01"
  },
  {
    "id": 47602,
    "name": "Level_OnmyoCombat_01"
  },
  {
    "id": 47603,
    "name": "Level_XM_BigLeaf"
  },
  {
    "id": 47604,
    "name": "Level_XM_BigLeaf"
  },
  {
    "id": 47605,
    "name": "Level_XM_BigLeaf"
  },
  {
    "id": 47606,
    "name": "Level_OnmyoCombat_01"
  },
  {
    "id": 47607,
    "name": "Level_CloudCombat_01"
  },
  {
    "id": 47608,
    "name": "Level_Carnival02 (Level_CharAmusement_Dungeon)"
  },
  {
    "id": 50002,
    "name": "TestLevel_Cold_LYX (TestLevel_Cold)"
  },
  {
    "id": 50003,
    "name": "TestLevel_Battle_CLX"
  },
  {
    "id": 50004,
    "name": "Level_PowerCharge_Test"
  },
  {
    "id": 50005,
    "name": "Level_ElementGameplay_Test"
  },
  {
    "id": 50006,
    "name": "Level_KaeyaTutorialMission02"
  },
  {
    "id": 50007,
    "name": "Level_PowerCharge_Test (Level_ClimbTest1)"
  },
  {
    "id": 50008,
    "name": "Level_Function_BlackBox_Test"
  },
  {
    "id": 50009,
    "name": "TestLevelGameplay_CX"
  },
  {
    "id": 50010,
    "name": "TestLevelGameplay_LSA"
  },
  {
    "id": 50011,
    "name": "Level_CycleDungeon01_Fire (Level_Explode_Test)"
  },
  {
    "id": 50012,
    "name": "Level_CycleDungeon01_Ice (Level_Swril_Test)"
  },
  {
    "id": 50013,
    "name": "Level_CycleDungeon01_Fire (Level_Melt_Test)"
  },
  {
    "id": 50014,
    "name": "Monster_StrategyTest_LTJ"
  },
  {
    "id": 50015,
    "name": "LevelTestRooms"
  },
  {
    "id": 50016,
    "name": "Level_CharactersPattern_Test"
  },
  {
    "id": 50017,
    "name": "Level_Tower_Moon_01"
  },
  {
    "id": 50018,
    "name": "TestLevel_Protect_MC"
  },
  {
    "id": 50019,
    "name": "TestLevel_Protect_MC (TestLevel_Element_Evn_Rock)"
  },
  {
    "id": 50020,
    "name": "ClimbTest1"
  },
  {
    "id": 50021,
    "name": "LevelTest_TestTest_WG"
  },
  {
    "id": 50022,
    "name": "TestLevel_PFDungeon01_ZHT"
  },
  {
    "id": 50023,
    "name": "Level_Tower_Dusk_01"
  },
  {
    "id": 50024,
    "name": "Level_Tower_Dusk_01 (LevelEntity_TowerBuff_ElementReactionHurt_Melt)"
  },
  {
    "id": 50025,
    "name": "Level_CycleDungeon02_Normal"
  },
  {
    "id": 50026,
    "name": "Level_CycleDungeon02_Normal"
  },
  {
    "id": 50027,
    "name": "Level_CycleDungeon02_Normal"
  },
  {
    "id": 50028,
    "name": "TestLevel_CycleFire_YQT"
  },
  {
    "id": 50029,
    "name": "Level_TdGameplay_Test"
  },
  {
    "id": 50030,
    "name": "Level_PFDungeon02_Active01"
  },
  {
    "id": 50031,
    "name": "Level_FCdungeon_DragonBoss"
  },
  {
    "id": 50032,
    "name": "Level_PFDungeon02_Active03"
  },
  {
    "id": 50033,
    "name": "Level_PFDungeon02_Active04"
  },
  {
    "id": 50034,
    "name": "Level_PFDungeon02_Active05"
  },
  {
    "id": 50041,
    "name": "TestLevel_SZ_LX"
  },
  {
    "id": 50042,
    "name": "TestLevel_MD_YQT"
  },
  {
    "id": 50043,
    "name": "TestLevel_MD_YQT"
  },
  {
    "id": 50044,
    "name": "TestLevel_SZ_LX"
  },
  {
    "id": 50045,
    "name": "Level_CycleDungeon_WindFlower"
  },
  {
    "id": 50046,
    "name": "Level_Challenge_Thunder01"
  },
  {
    "id": 50047,
    "name": "Level_CycleDungeon_WindFlower"
  },
  {
    "id": 50048,
    "name": "Level_CycleDungeon_WindFlower"
  },
  {
    "id": 50049,
    "name": "Level_CycleDungeon_WindFlower"
  },
  {
    "id": 50050,
    "name": "Level_Tower_Morning_01"
  },
  {
    "id": 50051,
    "name": "Level_FCdungeon_MistTrial"
  },
  {
    "id": 50052,
    "name": "Level_Tower_01_Open"
  },
  {
    "id": 50053,
    "name": "Level_LadyBoss01"
  },
  {
    "id": 50054,
    "name": "Level_ActivityBoss02_Water"
  },
  {
    "id": 50055,
    "name": "TestLevel_Dq_Rouge"
  },
  {
    "id": 50056,
    "name": "TestLevel_Dq_Rouge_YQT01"
  },
  {
    "id": 50057,
    "name": "TestLevel_Dq_Rouge_YQT02"
  },
  {
    "id": 50058,
    "name": "Level_Dq_Void02 (Level_Monster_Shougun_Setting)"
  },
  {
    "id": 50059,
    "name": "TestLevelSLL_SpringFestival (Level_Monster_Shougun_Setting)"
  },
  {
    "id": 50060,
    "name": "TestLevel_Dq_UGC_LX01"
  },
  {
    "id": 50061,
    "name": "Level_Tower_Universe_01"
  },
  {
    "id": 50062,
    "name": "TestLevel_Dq_UGC_LX02"
  },
  {
    "id": 50063,
    "name": "TestLevel_Dq_UGC_LX03"
  },
  {
    "id": 50064,
    "name": "TestLevel_Dq_UGC_LX04"
  },
  {
    "id": 50065,
    "name": "TestLevel_Dq_UGC_LX05"
  },
  {
    "id": 50066,
    "name": "TestLevel_FCdungeon_ShenheCloud01"
  },
  {
    "id": 50067,
    "name": "TestLevel_WB_Z"
  },
  {
    "id": 50068,
    "name": "Level_Tower_01_Open"
  },
  {
    "id": 50069,
    "name": "TestLevel_ClimbBox"
  },
  {
    "id": 50070,
    "name": "TestLevel_APA_ZQQ"
  },
  {
    "id": 50071,
    "name": "TestWorld_APA_ZQQ"
  },
  {
    "id": 50072,
    "name": "Level_TD_V3_Gameplay_Test"
  },
  {
    "id": 50073,
    "name": "PerformanceTest_LevelStreaming (LevelEntity_DungeonDive)"
  },
  {
    "id": 50074,
    "name": "Level_SmrDungeon_Tinali"
  },
  {
    "id": 50075,
    "name": "Level_SmrDungeon_BigTree"
  },
  {
    "id": 50076,
    "name": "Level_XMDungeon_GrassDragon"
  },
  {
    "id": 50077,
    "name": "Level_Tower_Moon_01"
  },
  {
    "id": 50078,
    "name": "Level_DreamIsland_Xinyan01"
  },
  {
    "id": 50079,
    "name": "Level_DreamIsland_Mona01 (Level_DreamDungeon_Mona)"
  },
  {
    "id": 50080,
    "name": "Level_DreamIsland_Kazuha02"
  },
  {
    "id": 50081,
    "name": "Level_DreamIsland_Mona02 (Level_DreamDungeon_Mona)"
  },
  {
    "id": 50082,
    "name": "Level_DreamIsland_Fischl01"
  },
  {
    "id": 50083,
    "name": "Level_DreamIsland_Fischl02"
  },
  {
    "id": 50084,
    "name": "Level_DreamIsland_Fischl03"
  },
  {
    "id": 50085,
    "name": "Level_DreamIsland_Kazuha03"
  },
  {
    "id": 50086,
    "name": "Level_DreamIsland_Fischllibrary"
  },
  {
    "id": 50087,
    "name": "Level_DreamIsland_Kazuha01"
  },
  {
    "id": 50088,
    "name": "Level_DreamIsland_Fischlroom"
  },
  {
    "id": 50089,
    "name": "Level_DreamIsland_Fischlcorridor"
  },
  {
    "id": 50090,
    "name": "TestLevel_WhiteBox_Xm_03"
  },
  {
    "id": 50091,
    "name": "Level_DahakaBoss01"
  },
  {
    "id": 79999,
    "name": "GcgCardTest"
  },
  {
    "id": 50092,
    "name": "WindPuzzle_WhiteboxSll01"
  },
  {
    "id": 50093,
    "name": "WindPuzzle_WhiteboxSll04"
  },
  {
    "id": 50094,
    "name": "Level_Tower_Moon_01"
  },
  {
    "id": 50095,
    "name": "Level_Tower_Moon_01"
  },
  {
    "id": 50096,
    "name": "Level_Tower_Moon_01"
  },
  {
    "id": 50097,
    "name": "Level_Tower_Moon_01"
  },
  {
    "id": 50098,
    "name": "Level_Tower_Moon_01"
  },
  {
    "id": 50099,
    "name": "Level_Tower_Moon_01"
  },
  {
    "id": 50100,
    "name": "FdWaterTest"
  },
  {
    "id": 50101,
    "name": "FdWaterTest02"
  },
  {
    "id": 50102,
    "name": "FdWaterFlowTest"
  },
  {
    "id": 51000,
    "name": "Level_Tower_Moon_01"
  },
  {
    "id": 51001,
    "name": "Level_Tower_Moon_01"
  },
  {
    "id": 51002,
    "name": "Level_Tower_Moon_01"
  },
  {
    "id": 51003,
    "name": "Level_Tower_Moon_01"
  },
  {
    "id": 51004,
    "name": "Level_Tower_Moon_01"
  },
  {
    "id": 51005,
    "name": "Level_Tower_Moon_01"
  },
  {
    "id": 51006,
    "name": "TestLevel_TestBox_GJH"
  },
  {
    "id": 51007,
    "name": "BigWorld_LevelStreaming (Level_BigWorld)"
  },
  {
    "id": 51008,
    "name": "Level_Carnival (Level_CharAmusement_Dungeon)"
  },
  {
    "id": 51009,
    "name": "Level_SmrDungeon_BigTree (LevelEntity_Activity_V3_2_MushroomBeastBattle)"
  },
  {
    "id": 51010,
    "name": "TestLevel_TestBox_LCM"
  },
  {
    "id": 51011,
    "name": "TestLevel_WhiteBox_Xm_04"
  },
  {
    "id": 51012,
    "name": "TestLevel_Xm_CircusTent"
  },
  {
    "id": 51013,
    "name": "Level_Xm_Alhaitham_01"
  },
  {
    "id": 51014,
    "name": "Level_Cycle01_XM04"
  },
  {
    "id": 51015,
    "name": "Level_TestLevel_Pacman_Sll"
  },
  {
    "id": 51016,
    "name": "TestLevel_FD_4.6_YYL"
  },
  {
    "id": 51017,
    "name": "Level_Cycle01_XM04"
  },
  {
    "id": 51018,
    "name": "TestLevel_Dehya_GJH"
  },
  {
    "id": 51019,
    "name": "TestLevel_WhiteBox_Xm_05"
  },
  {
    "id": 51020,
    "name": "TestLevel_3.7UGC_GJH"
  },
  {
    "id": 51021,
    "name": "Level_CustomLevel_A_05"
  },
  {
    "id": 51022,
    "name": "Level_CustomLevel_A_05"
  },
  {
    "id": 51023,
    "name": "TestLevel_WhiteBox_Fd_01"
  },
  {
    "id": 51024,
    "name": "TestLevel_WhiteBox_3.7UGC"
  },
  {
    "id": 51026,
    "name": "TestLevel_WhiteBox_UGC_TowerDefence"
  },
  {
    "id": 51027,
    "name": "TestLevel_WhiteBox_UGC_Survival"
  },
  {
    "id": 51028,
    "name": "TestLevel_WhiteBox_UGC_CampEnhancer"
  },
  {
    "id": 51031,
    "name": "Level_SmrDungeon_Challenge"
  },
  {
    "id": 51032,
    "name": "TestLevel_Whitebox_MQL"
  },
  {
    "id": 51037,
    "name": "Level_Tower_Moon_01"
  },
  {
    "id": 51038,
    "name": "Level_Tower_Moon_01"
  }
]